(module LOGO (layer F.Cu)
  (at 0 0)
 (fp_text reference "G***" (at 0 0) (layer F.SilkS) hide
  (effects (font (thickness 0.3)))
  )
  (fp_text value "LOGO" (at 0.75 0) (layer F.SilkS) hide
  (effects (font (thickness 0.3)))
  )
  (fp_poly (pts (xy -1.647974 -46.883994) (xy -1.144883 -46.880217) (xy -0.654002 -46.872901) (xy -0.189156 -46.862107) (xy 0.235826 -46.847898) (xy 0.607120 -46.830336) (xy 0.910900 -46.809484) (xy 0.952372 -46.805841)
     (xy 2.650568 -46.611527) (xy 4.311604 -46.341396) (xy 5.936931 -45.994980) (xy 7.528003 -45.571812) (xy 9.086272 -45.071423) (xy 10.613190 -44.493346) (xy 12.110211 -43.837113) (xy 13.578786 -43.102256)
     (xy 15.020368 -42.288306) (xy 15.070667 -42.258191) (xy 16.468069 -41.371110) (xy 17.812609 -40.419133) (xy 19.102494 -39.404783) (xy 20.335934 -38.330582) (xy 21.511135 -37.199053) (xy 22.626308 -36.012717)
     (xy 23.679660 -34.774098) (xy 24.669399 -33.485716) (xy 25.593735 -32.150095) (xy 26.450874 -30.769757) (xy 27.239027 -29.347224) (xy 27.956400 -27.885019) (xy 28.601203 -26.385662) (xy 29.171643 -24.851678)
     (xy 29.665930 -23.285588) (xy 30.082271 -21.689914) (xy 30.263023 -20.870333) (xy 30.476352 -19.728666) (xy 30.656644 -18.527768) (xy 30.801123 -17.287482) (xy 30.869588 -16.531167) (xy 30.888683 -16.228453)
     (xy 30.903524 -15.855839) (xy 30.914179 -15.427982) (xy 30.920715 -14.959538) (xy 30.923203 -14.465163) (xy 30.921708 -13.959513) (xy 30.916301 -13.457245) (xy 30.907048 -12.973016) (xy 30.894018 -12.521481)
     (xy 30.877279 -12.117297) (xy 30.856900 -11.775120) (xy 30.846883 -11.648970) (xy 30.664110 -9.983773) (xy 30.410119 -8.361669) (xy 30.083633 -6.778031) (xy 29.683372 -5.228232) (xy 29.208058 -3.707646)
     (xy 28.656412 -2.211645) (xy 28.027154 -0.735604) (xy 27.556784 0.254000) (xy 26.827053 1.650213) (xy 26.050829 2.982950) (xy 25.222060 4.260539) (xy 24.334689 5.491309) (xy 23.382664 6.683587)
     (xy 22.359928 7.845701) (xy 21.260428 8.985980) (xy 21.077184 9.166755) (xy 19.910946 10.257365) (xy 18.711721 11.274577) (xy 17.472521 12.223357) (xy 16.186362 13.108672) (xy 14.846257 13.935490)
     (xy 13.445220 14.708777) (xy 12.869334 15.002642) (xy 11.397996 15.694961) (xy 9.918226 16.306842) (xy 8.424085 16.839943) (xy 6.909634 17.295921) (xy 5.368933 17.676434) (xy 3.796045 17.983140)
     (xy 2.185030 18.217695) (xy 0.858074 18.355079) (xy 0.578052 18.374631) (xy 0.228979 18.391994) (xy -0.173872 18.406959) (xy -0.615226 18.419318) (xy -1.079811 18.428864) (xy -1.552352 18.435389)
     (xy -2.017577 18.438684) (xy -2.460212 18.438541) (xy -2.864983 18.434753) (xy -3.216617 18.427112) (xy -3.499841 18.415409) (xy -3.513666 18.414612) (xy -5.194481 18.274411) (xy -6.854055 18.052967)
     (xy -8.490447 17.751023) (xy -10.101715 17.369322) (xy -11.685918 16.908608) (xy -13.241114 16.369625) (xy -14.765361 15.753116) (xy -16.256719 15.059824) (xy -17.713245 14.290494) (xy -19.132997 13.445868)
     (xy -20.514036 12.526690) (xy -21.854418 11.533704) (xy -22.203833 11.257263) (xy -23.466295 10.190997) (xy -24.668080 9.066945) (xy -25.807693 7.887869) (xy -26.883635 6.656535) (xy -27.894409 5.375706)
     (xy -28.838517 4.048147) (xy -29.714462 2.676621) (xy -30.520746 1.263893) (xy -31.255872 -0.187274) (xy -31.918343 -1.674115) (xy -32.506660 -3.193867) (xy -33.019327 -4.743766) (xy -33.454846 -6.321047)
     (xy -33.811719 -7.922946) (xy -34.088449 -9.546700) (xy -34.265992 -11.006667) (xy -34.363810 -12.284978) (xy -34.410750 -13.606180) (xy -34.408754 -14.351000) (xy -32.728133 -14.351000) (xy -32.703593 -12.986045)
     (xy -32.627569 -11.672511) (xy -32.497973 -10.393059) (xy -32.312715 -9.130345) (xy -32.069709 -7.867028) (xy -31.816400 -6.780627) (xy -31.714139 -6.387398) (xy -31.600101 -5.973247) (xy -31.477930 -5.549611)
     (xy -31.351270 -5.127929) (xy -31.223765 -4.719640) (xy -31.099057 -4.336181) (xy -30.980792 -3.988992) (xy -30.872612 -3.689511) (xy -30.778162 -3.449176) (xy -30.701122 -3.279498) (xy -30.540049 -3.045514)
     (xy -30.336927 -2.878201) (xy -30.102138 -2.782461) (xy -29.846059 -2.763198) (xy -29.673260 -2.793968) (xy -29.501804 -2.879527) (xy -29.351983 -3.022078) (xy -29.255383 -3.187400) (xy -29.236939 -3.266635)
     (xy -29.243998 -3.361139) (xy -29.280149 -3.494334) (xy -29.320221 -3.610734) (xy -29.510525 -4.145000) (xy -29.674095 -4.613524) (xy -29.815264 -5.029324) (xy -29.938365 -5.405417) (xy -30.047732 -5.754822)
     (xy -30.147696 -6.090558) (xy -30.161511 -6.138333) (xy -30.558232 -7.667007) (xy -30.871949 -9.208822) (xy -31.102740 -10.760615) (xy -31.250682 -12.319225) (xy -31.315855 -13.881489) (xy -31.304346 -14.908111)
     (xy -29.789055 -14.908111) (xy -29.783894 -13.394165) (xy -29.696577 -11.879135) (xy -29.526868 -10.365966) (xy -29.274534 -8.857602) (xy -28.939340 -7.356988) (xy -28.547052 -5.951395) (xy -28.115754 -4.668906)
     (xy -27.609097 -3.383065) (xy -27.034323 -2.109109) (xy -26.398676 -0.862272) (xy -25.709396 0.342210) (xy -25.097379 1.305409) (xy -24.207884 2.564310) (xy -23.256116 3.767444) (xy -22.244624 4.912843)
     (xy -21.175958 5.998537) (xy -20.052669 7.022556) (xy -18.877306 7.982929) (xy -17.652419 8.877688) (xy -16.380558 9.704863) (xy -15.064273 10.462483) (xy -13.706113 11.148579) (xy -12.308629 11.761181)
     (xy -10.874371 12.298319) (xy -10.861519 12.302730) (xy -9.717613 12.669888) (xy -8.579618 12.983165) (xy -7.433455 13.245206) (xy -6.265043 13.458658) (xy -5.060301 13.626165) (xy -3.805150 13.750372)
     (xy -2.794000 13.818248) (xy -2.592095 13.824870) (xy -2.321107 13.827325) (xy -1.996501 13.825990) (xy -1.633740 13.821238) (xy -1.248285 13.813444) (xy -0.855601 13.802981) (xy -0.471150 13.790225)
     (xy -0.110395 13.775549) (xy 0.211200 13.759327) (xy 0.478173 13.741935) (xy 0.530599 13.737777) (xy 2.057480 13.569811) (xy 3.561068 13.321677) (xy 5.038899 12.995272) (xy 6.488506 12.592493)
     (xy 7.907424 12.115238) (xy 9.293189 11.565403) (xy 10.643334 10.944886) (xy 11.955394 10.255584) (xy 13.226904 9.499394) (xy 14.455397 8.678213) (xy 15.638410 7.793939) (xy 16.773476 6.848468)
     (xy 17.858130 5.843697) (xy 18.889907 4.781524) (xy 19.866340 3.663846) (xy 20.784966 2.492560) (xy 21.643317 1.269563) (xy 22.438930 -0.003247) (xy 23.169337 -1.323974) (xy 23.832075 -2.690721)
     (xy 24.082665 -3.287326) (xy 25.808342 -3.287326) (xy 25.814654 -3.227758) (xy 25.824307 -3.193217) (xy 25.928605 -3.002109) (xy 26.089611 -2.861554) (xy 26.291423 -2.778563) (xy 26.518136 -2.760145)
     (xy 26.716600 -2.799847) (xy 26.870758 -2.863478) (xy 27.002549 -2.948931) (xy 27.119096 -3.066503) (xy 27.227520 -3.226492) (xy 27.334943 -3.439196) (xy 27.448486 -3.714913) (xy 27.559297 -4.018340)
     (xy 28.040785 -5.511704) (xy 28.447844 -7.040588) (xy 28.778938 -8.597446) (xy 29.032535 -10.174734) (xy 29.207101 -11.764905) (xy 29.250110 -12.336154) (xy 29.265624 -12.635577) (xy 29.277691 -13.001578)
     (xy 29.286306 -13.417170) (xy 29.291462 -13.865371) (xy 29.293157 -14.329194) (xy 29.291384 -14.791656) (xy 29.286139 -15.235772) (xy 29.277417 -15.644558) (xy 29.265213 -16.001028) (xy 29.251239 -16.263216)
     (xy 29.106180 -17.863117) (xy 28.886792 -19.427650) (xy 28.591482 -20.964780) (xy 28.218657 -22.482476) (xy 27.766725 -23.988702) (xy 27.617747 -24.432928) (xy 27.492737 -24.787818) (xy 27.384342 -25.070980)
     (xy 27.286570 -25.292282) (xy 27.193431 -25.461589) (xy 27.098935 -25.588769) (xy 26.997091 -25.683686) (xy 26.881910 -25.756208) (xy 26.787777 -25.799921) (xy 26.571516 -25.855439) (xy 26.357129 -25.849825)
     (xy 26.159956 -25.790603) (xy 25.995334 -25.685300) (xy 25.878602 -25.541441) (xy 25.825100 -25.366552) (xy 25.823334 -25.326736) (xy 25.837987 -25.242164) (xy 25.878115 -25.097610) (xy 25.937963 -24.911788)
     (xy 26.011781 -24.703414) (xy 26.029501 -24.655934) (xy 26.533398 -23.199381) (xy 26.957514 -21.718395) (xy 27.301843 -20.216903) (xy 27.566382 -18.698831) (xy 27.751126 -17.168104) (xy 27.856070 -15.628647)
     (xy 27.881208 -14.084387) (xy 27.826537 -12.539249) (xy 27.692051 -10.997159) (xy 27.477747 -9.462042) (xy 27.183618 -7.937825) (xy 26.809661 -6.428432) (xy 26.355870 -4.937790) (xy 26.054361 -4.078661)
     (xy 25.957260 -3.812695) (xy 25.887374 -3.613148) (xy 25.841436 -3.467451) (xy 25.816181 -3.363033) (xy 25.808342 -3.287326) (xy 24.082665 -3.287326) (xy 24.424678 -4.101590) (xy 24.710098 -4.868333)
     (xy 25.177712 -6.307465) (xy 25.565503 -7.771352) (xy 25.873098 -9.255496) (xy 26.100126 -10.755396) (xy 26.246214 -12.266555) (xy 26.310992 -13.784472) (xy 26.294088 -15.304650) (xy 26.195129 -16.822589)
     (xy 26.013745 -18.333791) (xy 25.887074 -19.113500) (xy 25.577865 -20.618431) (xy 25.188748 -22.097725) (xy 24.721342 -23.548584) (xy 24.177269 -24.968210) (xy 23.558146 -26.353808) (xy 22.865594 -27.702579)
     (xy 22.101233 -29.011727) (xy 21.266682 -30.278453) (xy 20.363561 -31.499961) (xy 19.393490 -32.673454) (xy 18.358088 -33.796134) (xy 17.258976 -34.865205) (xy 16.256000 -35.746313) (xy 15.057358 -36.695151)
     (xy 13.807991 -37.576575) (xy 12.509821 -38.389477) (xy 11.164769 -39.132751) (xy 9.774759 -39.805289) (xy 8.341713 -40.405984) (xy 7.829837 -40.599232) (xy 6.413895 -41.074104) (xy 4.968619 -41.471272)
     (xy 3.499545 -41.790185) (xy 2.012210 -42.030292) (xy 0.512150 -42.191043) (xy -0.995100 -42.271886) (xy -2.504003 -42.272270) (xy -4.009022 -42.191644) (xy -5.504623 -42.029457) (xy -5.926666 -41.968482)
     (xy -7.441419 -41.695311) (xy -8.929094 -41.343079) (xy -10.387152 -40.913641) (xy -11.813055 -40.408856) (xy -13.204265 -39.830579) (xy -14.558241 -39.180668) (xy -15.872447 -38.460979) (xy -17.144343 -37.673369)
     (xy -18.371390 -36.819696) (xy -19.551051 -35.901815) (xy -20.680785 -34.921585) (xy -21.758056 -33.880861) (xy -22.780323 -32.781500) (xy -23.745049 -31.625360) (xy -24.649694 -30.414298) (xy -25.491720 -29.150169)
     (xy -26.268589 -27.834831) (xy -26.900838 -26.627292) (xy -27.544490 -25.228027) (xy -28.107860 -23.804120) (xy -28.590716 -22.358517) (xy -28.992821 -20.894161) (xy -29.313942 -19.413998) (xy -29.553844 -17.920972)
     (xy -29.712293 -16.418028) (xy -29.789055 -14.908111) (xy -31.304346 -14.908111) (xy -31.298335 -15.444243) (xy -31.198201 -17.004325) (xy -31.015530 -18.558572) (xy -30.750401 -20.103822) (xy -30.402891 -21.636911)
     (xy -29.973079 -23.154678) (xy -29.723401 -23.918333) (xy -29.637342 -24.166916) (xy -29.548044 -24.419589) (xy -29.464776 -24.650454) (xy -29.396803 -24.833614) (xy -29.382917 -24.869868) (xy -29.301262 -25.102205)
     (xy -29.261810 -25.278571) (xy -29.264189 -25.416177) (xy -29.308024 -25.532235) (xy -29.366773 -25.614175) (xy -29.543921 -25.763774) (xy -29.755706 -25.846159) (xy -29.984811 -25.860967) (xy -30.213919 -25.807834)
     (xy -30.425710 -25.686397) (xy -30.482244 -25.637573) (xy -30.562364 -25.550797) (xy -30.638625 -25.441403) (xy -30.715880 -25.298887) (xy -30.798980 -25.112745) (xy -30.892778 -24.872474) (xy -31.002126 -24.567570)
     (xy -31.076710 -24.350724) (xy -31.549767 -22.843309) (xy -31.941193 -21.339807) (xy -32.252317 -19.832169) (xy -32.484468 -18.312343) (xy -32.638977 -16.772279) (xy -32.717172 -15.203925) (xy -32.728133 -14.351000)
     (xy -34.408754 -14.351000) (xy -34.407159 -14.946102) (xy -34.353384 -16.280572) (xy -34.249773 -17.585420) (xy -34.160182 -18.372667) (xy -33.909500 -20.004145) (xy -33.579336 -21.610352) (xy -33.171570 -23.188963)
     (xy -32.688084 -24.737652) (xy -32.130760 -26.254094) (xy -31.501478 -27.735964) (xy -30.802119 -29.180936) (xy -30.034565 -30.586685) (xy -29.200698 -31.950885) (xy -28.302397 -33.271212) (xy -27.341545 -34.545340)
     (xy -26.320023 -35.770943) (xy -25.239712 -36.945697) (xy -24.102493 -38.067276) (xy -22.910247 -39.133354) (xy -21.664855 -40.141607) (xy -20.368200 -41.089709) (xy -19.022161 -41.975334) (xy -17.628620 -42.796159)
     (xy -16.189459 -43.549856) (xy -14.706558 -44.234101) (xy -13.181800 -44.846568) (xy -12.561146 -45.070744) (xy -11.152123 -45.528780) (xy -9.731936 -45.919992) (xy -8.289497 -46.246697) (xy -6.813714 -46.511213)
     (xy -5.293498 -46.715858) (xy -4.148666 -46.828829) (xy -3.862665 -46.847600) (xy -3.505916 -46.862456) (xy -3.092247 -46.873462) (xy -2.635482 -46.880678) (xy -2.149449 -46.884168) (xy -1.647974 -46.883994) )(layer B.Mask) (width  0.010000)
  )
)
