(module arduinoNano33_thd (layer F.Cu) (tedit 5E2DFFD2)
  (fp_text reference REF** (at -20.32 0 90) (layer F.SilkS)
    (effects (font (size 1 1) (thickness 0.15)))
  )
  (fp_text value arduinoNano33_thd (at 0 0) (layer F.Fab)
    (effects (font (size 1 1) (thickness 0.15)))
  )
  (fp_text user +3V3 (at -15.24 13.97 90) (layer F.SilkS)
    (effects (font (size 1 1) (thickness 0.15)))
  )
  (fp_text user VIN (at 17.78 13.97 90) (layer F.SilkS)
    (effects (font (size 1 1) (thickness 0.15)))
  )
  (fp_line (start -18.93 10.75) (end -18.93 -10.75) (layer F.CrtYd) (width 0.05))
  (fp_line (start 18.93 10.75) (end -18.93 10.75) (layer F.CrtYd) (width 0.05))
  (fp_line (start 18.93 -10.75) (end 18.93 10.75) (layer F.CrtYd) (width 0.05))
  (fp_line (start -18.93 -10.75) (end 18.93 -10.75) (layer F.CrtYd) (width 0.05))
  (fp_line (start 19.18 11) (end -18.38 11) (layer F.SilkS) (width 0.12))
  (fp_line (start 19.18 -11) (end 19.18 11) (layer F.SilkS) (width 0.12))
  (fp_text user GND (at 15.24 13.97 90) (layer F.SilkS)
    (effects (font (size 1 1) (thickness 0.15)))
  )
  (fp_line (start -18.38 11) (end -19.18 10.2) (layer F.SilkS) (width 0.12))
  (fp_text user GND (at 10.16 -13.97 90) (layer F.SilkS)
    (effects (font (size 1 1) (thickness 0.15)))
  )
  (fp_text user VUSB (at 10.16 13.97 90) (layer F.SilkS)
    (effects (font (size 1 1) (thickness 0.15)))
  )
  (fp_line (start -19.18 -11) (end 19.18 -11) (layer F.SilkS) (width 0.12))
  (fp_line (start -19.18 10.2) (end -19.18 -11) (layer F.SilkS) (width 0.12))
  (pad 30 thru_hole circle (at -12.7 -7.62) (size 1.8 1.8) (drill 1.1) (layers *.Cu *.Mask))
  (pad 29 thru_hole circle (at -15.24 -7.62) (size 1.8 1.8) (drill 1.1) (layers *.Cu *.Mask))
  (pad 28 thru_hole circle (at -17.78 -7.62) (size 1.8 1.8) (drill 1.1) (layers *.Cu *.Mask))
  (pad 27 thru_hole circle (at -10.16 -7.62) (size 1.8 1.8) (drill 1.1) (layers *.Cu *.Mask))
  (pad 26 thru_hole circle (at -7.62 -7.62) (size 1.8 1.8) (drill 1.1) (layers *.Cu *.Mask))
  (pad 25 thru_hole circle (at -5.08 -7.62) (size 1.8 1.8) (drill 1.1) (layers *.Cu *.Mask))
  (pad 24 thru_hole circle (at -2.54 -7.62) (size 1.8 1.8) (drill 1.1) (layers *.Cu *.Mask))
  (pad 23 thru_hole circle (at 0 -7.62) (size 1.8 1.8) (drill 1.1) (layers *.Cu *.Mask))
  (pad 22 thru_hole circle (at 2.54 -7.62) (size 1.8 1.8) (drill 1.1) (layers *.Cu *.Mask))
  (pad 21 thru_hole circle (at 5.08 -7.62) (size 1.8 1.8) (drill 1.1) (layers *.Cu *.Mask))
  (pad 20 thru_hole circle (at 7.62 -7.62) (size 1.8 1.8) (drill 1.1) (layers *.Cu *.Mask))
  (pad 19 thru_hole circle (at 10.16 -7.62) (size 1.8 1.8) (drill 1.1) (layers *.Cu *.Mask))
  (pad 18 thru_hole circle (at 12.7 -7.62) (size 1.8 1.8) (drill 1.1) (layers *.Cu *.Mask))
  (pad 17 thru_hole circle (at 15.24 -7.62) (size 1.8 1.8) (drill 1.1) (layers *.Cu *.Mask))
  (pad 16 thru_hole circle (at 17.78 -7.62) (size 1.8 1.8) (drill 1.1) (layers *.Cu *.Mask))
  (pad 15 thru_hole circle (at 17.78 7.62) (size 1.8 1.8) (drill 1.1) (layers *.Cu *.Mask))
  (pad 14 thru_hole circle (at 15.24 7.62) (size 1.8 1.8) (drill 1.1) (layers *.Cu *.Mask))
  (pad 13 thru_hole circle (at 12.7 7.62) (size 1.8 1.8) (drill 1.1) (layers *.Cu *.Mask))
  (pad 12 thru_hole circle (at 10.16 7.62) (size 1.8 1.8) (drill 1.1) (layers *.Cu *.Mask))
  (pad 11 thru_hole circle (at 7.62 7.62) (size 1.8 1.8) (drill 1.1) (layers *.Cu *.Mask))
  (pad 10 thru_hole circle (at 5.08 7.62) (size 1.8 1.8) (drill 1.1) (layers *.Cu *.Mask))
  (pad 9 thru_hole circle (at 2.54 7.62) (size 1.8 1.8) (drill 1.1) (layers *.Cu *.Mask))
  (pad 8 thru_hole circle (at 0 7.62) (size 1.8 1.8) (drill 1.1) (layers *.Cu *.Mask))
  (pad 7 thru_hole circle (at -2.54 7.62) (size 1.8 1.8) (drill 1.1) (layers *.Cu *.Mask))
  (pad 6 thru_hole circle (at -5.08 7.62) (size 1.8 1.8) (drill 1.1) (layers *.Cu *.Mask))
  (pad 5 thru_hole circle (at -7.62 7.62) (size 1.8 1.8) (drill 1.1) (layers *.Cu *.Mask))
  (pad 4 thru_hole circle (at -10.16 7.62) (size 1.8 1.8) (drill 1.1) (layers *.Cu *.Mask))
  (pad 3 thru_hole circle (at -12.7 7.62) (size 1.8 1.8) (drill 1.1) (layers *.Cu *.Mask))
  (pad 2 thru_hole circle (at -15.24 7.62) (size 1.8 1.8) (drill 1.1) (layers *.Cu *.Mask))
  (pad 1 thru_hole circle (at -17.78 7.62) (size 1.8 1.8) (drill 1.1) (layers *.Cu *.Mask))
  (model ${KIPRJMOD}/3d/61301511121_Downlaod_STP_61301511121_rev1.stp
    (offset (xyz 0 7.62 4))
    (scale (xyz 1 1 1))
    (rotate (xyz 90 0 0))
  )
  (model ${KIPRJMOD}/3d/61301511121_Downlaod_STP_61301511121_rev1.stp
    (offset (xyz 0 -7.62 4))
    (scale (xyz 1 1 1))
    (rotate (xyz 90 0 0))
  )
  (model "${KIPRJMOD}/3d/Arduino Nano 33 IoT.stp"
    (offset (xyz 0.5 0 6.5))
    (scale (xyz 1 1 1))
    (rotate (xyz -90 0 90))
  )
)
