<?xml version="1.0" encoding="utf-8"?>
<!-- Generator: Adobe Illustrator 24.0.2, SVG Export Plug-In . SVG Version: 6.00 Build 0)  -->
<svg version="1.0" id="Layer_1" xmlns="http://www.w3.org/2000/svg" xmlns:xlink="http://www.w3.org/1999/xlink" x="0px" y="0px"
	 viewBox="0 0 595.3 841.9" style="enable-background:new 0 0 595.3 841.9;" xml:space="preserve">
<style type="text/css">
	.st0{fill:none;stroke:#005675;stroke-miterlimit:10;}
</style>
<path class="st0" d="M369.5,184.2L369.5,184.2c-1.8-2.1-3.3-4.9-3.3-7.8v-62.8c0-1.8-1.5-3.3-3.3-3.3H225c-1.8,0-3.3,1.5-3.3,3.3
	v62.8c0,3-1.5,5.7-3.3,7.8l0,0c-15,17.4-24.1,40.1-24.1,65c0,25,9.2,47.8,24.3,65.3c1.7,2,3,4.7,3,7.5v148.7c0,1.8,1.5,3.3,3.3,3.3
	h137.9c1.8,0,3.3-1.5,3.3-3.3V321.9c0-2.8,1.4-5.5,3-7.5c15.2-17.5,24.3-40.3,24.3-65.3C393.6,224.3,384.5,201.6,369.5,184.2z
	 M214.5,281.7c-1.7,0-2.4-1.4-2.6-2.1c-3.6-9.6-5.5-19.9-5.5-30.7c0-10.8,2-21.2,5.5-30.7c0.3-0.7,0.8-2.1,2.6-2.1
	c1.6,0,2.2,1.3,1.9,2.1c-3.7,9.5-5.8,19.8-5.8,30.7c0,10.9,2.1,21.2,5.9,30.8C216.7,280.4,216.2,281.7,214.5,281.7z M374.3,281.7
	c-1.6,0-2.2-1.3-1.9-2.1c3.8-9.5,5.9-19.9,5.9-30.8c0-10.8-2.1-21.2-5.8-30.7c-0.3-0.8,0.2-2.1,1.9-2.1c1.7,0,2.3,1.4,2.6,2.1
	c3.6,9.6,5.5,19.9,5.5,30.7c0,10.8-2,21.2-5.5,30.7C376.7,280.3,376,281.7,374.3,281.7z"/>
</svg>
