<?xml version="1.0" encoding="UTF-8" standalone="no"?>
<!-- Generator: Adobe Illustrator 24.0.2, SVG Export Plug-In . SVG Version: 6.00 Build 0)  -->

<svg
   xmlns:dc="http://purl.org/dc/elements/1.1/"
   xmlns:cc="http://creativecommons.org/ns#"
   xmlns:rdf="http://www.w3.org/1999/02/22-rdf-syntax-ns#"
   xmlns:svg="http://www.w3.org/2000/svg"
   xmlns="http://www.w3.org/2000/svg"
   xmlns:xlink="http://www.w3.org/1999/xlink"
   xmlns:sodipodi="http://sodipodi.sourceforge.net/DTD/sodipodi-0.dtd"
   xmlns:inkscape="http://www.inkscape.org/namespaces/inkscape"
   version="1.0"
   id="Layer_1"
   x="0px"
   y="0px"
   viewBox="0 0 100.0 100.0"
   style="enable-background:new 0 0 595.3 841.9;"
   xml:space="preserve"
   sodipodi:docname="name-field.svg"
   width="100.0mm"
   height="100.0mm"
   inkscape:version="0.92.4 5da689c313, 2019-01-14"><metadata
   id="metadata1089"><rdf:RDF><cc:Work
       rdf:about=""><dc:format>image/svg+xml</dc:format><dc:type
         rdf:resource="http://purl.org/dc/dcmitype/StillImage" /><dc:title></dc:title></cc:Work></rdf:RDF></metadata><defs
   id="defs1087"><marker
     inkscape:stockid="Arrow1Lstart"
     orient="auto"
     refY="0.0"
     refX="0.0"
     id="marker2035"
     style="overflow:visible"
     inkscape:isstock="true"><path
       id="path2033"
       d="M 0.0,0.0 L 5.0,-5.0 L -12.5,0.0 L 5.0,5.0 L 0.0,0.0 z "
       style="fill-rule:evenodd;stroke:#ff0000;stroke-width:1pt;stroke-opacity:1;fill:#008000;fill-opacity:1"
       transform="scale(0.8) translate(12.5,0)" /></marker><marker
     inkscape:stockid="Arrow1Lstart"
     orient="auto"
     refY="0.0"
     refX="0.0"
     id="marker2013"
     style="overflow:visible"
     inkscape:isstock="true"><path
       id="path2011"
       d="M 0.0,0.0 L 5.0,-5.0 L -12.5,0.0 L 5.0,5.0 L 0.0,0.0 z "
       style="fill-rule:evenodd;stroke:#ff0000;stroke-width:1pt;stroke-opacity:1;fill:#008000;fill-opacity:1"
       transform="scale(0.8) translate(12.5,0)" /></marker><marker
     inkscape:stockid="Arrow1Lstart"
     orient="auto"
     refY="0.0"
     refX="0.0"
     id="Arrow1Lstart"
     style="overflow:visible"
     inkscape:isstock="true"><path
       id="path1735"
       d="M 0.0,0.0 L 5.0,-5.0 L -12.5,0.0 L 5.0,5.0 L 0.0,0.0 z "
       style="fill-rule:evenodd;stroke:#ff0000;stroke-width:1pt;stroke-opacity:1;fill:#008000;fill-opacity:1"
       transform="scale(0.8) translate(12.5,0)" /></marker><clipPath
     clipPathUnits="userSpaceOnUse"
     id="clipPath1727"><use
       x="0"
       y="0"
       xlink:href="#g1723"
       id="use1729"
       width="100%"
       height="100%" /></clipPath></defs><sodipodi:namedview
   pagecolor="#ffffff"
   bordercolor="#666666"
   borderopacity="1"
   objecttolerance="10"
   gridtolerance="10"
   guidetolerance="10"
   inkscape:pageopacity="0"
   inkscape:pageshadow="2"
   inkscape:window-width="1920"
   inkscape:window-height="1023"
   id="namedview1085"
   showgrid="true"
   inkscape:zoom="3.1714397"
   inkscape:cx="179.88702"
   inkscape:cy="270.80894"
   inkscape:window-x="0"
   inkscape:window-y="57"
   inkscape:window-maximized="0"
   inkscape:current-layer="g1660"
   borderlayer="true"
   inkscape:document-units="mm"
   inkscape:snap-grids="false"
   inkscape:snap-to-guides="true"
   inkscape:snap-bbox="true"
   inkscape:bbox-paths="true"
   inkscape:snap-bbox-edge-midpoints="true"
   inkscape:snap-bbox-midpoints="true"
   inkscape:bbox-nodes="true"
   inkscape:snap-smooth-nodes="true"
   inkscape:snap-midpoints="true"
   inkscape:snap-object-midpoints="true"
   inkscape:snap-center="true"><inkscape:grid
     id="grid1636"
     units="mm"
     type="xygrid"
     empspacing="1"
     spacingy="2.54"
     spacingx="2.54" /></sodipodi:namedview>
<style
   type="text/css"
   id="style1079">
	.st0{fill-rule:evenodd;clip-rule:evenodd;fill:#ED1C24;}
</style>

<g
   id="g1644"
   sodipodi:insensitive="true"
   inkscape:groupmode="layer"
   inkscape:label="[fixed] BG"><rect
     id="rect1642"
     style="stroke:none;fill-opacity:1;fill:#FFFFFF"
     height="100.0"
     width="100.0"
     y="0"
     x="0" /></g><g
   id="g1646"
   inkscape:groupmode="layer"
   inkscape:label="F.Cu" /><g
   id="g1648"
   inkscape:groupmode="layer"
   inkscape:label="B.Cu-disabled" /><g
   id="g1650"
   inkscape:groupmode="layer"
   inkscape:label="B.Adhes-disabled" /><g
   id="g1652"
   inkscape:groupmode="layer"
   inkscape:label="F.Adhes-disabled" /><g
   id="g1654"
   inkscape:groupmode="layer"
   inkscape:label="B.Paste-disabled" /><g
   id="g1656"
   inkscape:groupmode="layer"
   inkscape:label="F.Paste-disabled" /><g
   id="g1658"
   inkscape:groupmode="layer"
   inkscape:label="B.SilkS-disabled" /><g
   id="g1660"
   inkscape:groupmode="layer"
   inkscape:label="F.SilkS"
   style="display:inline"><path
     style="display:inline;opacity:0.95999995;fill:#2b0000;fill-opacity:1;stroke:#ff0000;stroke-width:0.06624835;stroke-miterlimit:4;stroke-dasharray:none;stroke-opacity:1"
     d="M 192.74219 63.021484 C 192.61434 63.021484 192.48912 63.034268 192.36328 63.042969 L 169.58984 63.042969 C 166.304 63.042969 163.6582 65.580825 163.6582 68.732422 L 163.6582 106.57422 C 163.6582 109.72582 166.304 112.26367 169.58984 112.26367 L 192.67383 112.26367 C 192.69683 112.26396 192.71912 112.26758 192.74219 112.26758 L 327.88867 112.26758 C 331.24176 112.26758 333.93945 109.23147 333.93945 105.45898 L 333.93945 69.830078 C 333.93945 66.057599 331.24176 63.021484 327.88867 63.021484 L 192.74219 63.021484 z M 319.125 87.384766 C 324.73533 87.384766 329.27734 92.044139 329.27734 97.771484 C 329.27734 99.492133 328.86995 101.11396 328.14648 102.54492 L 328.14648 95.638672 L 325.81641 95.638672 L 325.81641 100.61523 C 325.81641 101.98339 325.29821 102.66992 324.28125 102.66992 C 323.77959 102.66992 323.40633 102.51459 323.15039 102.21094 C 322.90468 101.89682 322.77734 101.34122 322.77734 100.56641 L 322.77734 95.638672 L 320.44727 95.638672 L 320.44727 100.75781 C 320.44727 103.53598 321.54298 104.91797 323.73047 104.91797 C 324.61774 104.91797 325.31475 104.65243 325.81641 104.12891 L 325.81641 104.73633 L 326.6582 104.73633 C 324.79833 106.8374 322.112 108.16016 319.11914 108.16016 C 313.51222 108.15716 308.96875 103.50931 308.96875 97.771484 C 308.96875 92.044139 313.51126 87.384766 319.125 87.384766 z M 316.72852 91.806641 A 1.7689221 1.7478093 64.722313 0 0 315.07031 93.523438 A 1.7689221 1.7478093 64.722313 0 0 316.79102 95.335938 A 1.7689221 1.7478093 64.722313 0 0 317.16016 95.302734 C 317.18408 95.303755 317.20632 95.310547 317.23047 95.310547 C 318.186 95.310547 318.94531 94.532347 318.94531 93.558594 C 318.94531 92.595309 318.18259 91.806641 317.23047 91.806641 C 317.16962 91.806641 317.112 91.817774 317.05273 91.824219 A 1.7689221 1.7478093 64.722313 0 0 316.85156 91.806641 A 1.7689221 1.7478093 64.722313 0 0 316.72852 91.806641 z "
     transform="scale(0.26458333)"
     id="rect1715" /></g><g
   id="g1662"
   inkscape:groupmode="layer"
   inkscape:label="B.Mask-disabled" /><g
   id="g1664"
   inkscape:groupmode="layer"
   inkscape:label="F.Mask"
   style="display:inline"><g
     id="g1725"
     clip-path="url(#clipPath1727)"
     transform="matrix(0.74655483,0,0,0.74655483,25.513709,6.9859381)"
     style="fill:#ff0000;stroke-width:0.03544058;stroke-miterlimit:4;stroke-dasharray:none"><g
       inkscape:label="Clip"
       id="g1723"
       style="fill:#ff0000;stroke-width:0.03544058;stroke-miterlimit:4;stroke-dasharray:none"><g
         transform="matrix(0.01236913,0,0,0.01236913,77.665741,-2.7732128)"
         id="HATCH"
         style="fill:#ff0000;stroke-width:2.86524405;stroke-miterlimit:4;stroke-dasharray:none">
	
</g></g></g></g><g
   id="g1666"
   inkscape:groupmode="layer"
   inkscape:label="Dwgs.User-disabled" /><g
   id="g1668"
   inkscape:groupmode="layer"
   inkscape:label="Cmts.User-disabled" /><g
   id="g1670"
   inkscape:groupmode="layer"
   inkscape:label="Eco1.User-disabled" /><g
   id="g1672"
   inkscape:groupmode="layer"
   inkscape:label="Eco2.User-disabled" /><g
   id="g1674"
   inkscape:groupmode="layer"
   inkscape:label="Edge.Cuts" /><g
   id="g1676"
   inkscape:groupmode="layer"
   inkscape:label="Margin-disabled" /><g
   id="g1678"
   inkscape:groupmode="layer"
   inkscape:label="B.CrtYd-disabled" /><g
   id="g1680"
   inkscape:groupmode="layer"
   inkscape:label="F.CrtYd-disabled" /><g
   id="g1682"
   inkscape:groupmode="layer"
   inkscape:label="B.Fab-disabled" /><g
   id="g1684"
   inkscape:groupmode="layer"
   inkscape:label="F.Fab-disabled" /><g
   id="g1686"
   inkscape:groupmode="layer"
   inkscape:label="Drill" /></svg>