%!PS-Adobe-3.0
%%Creator: PCBNEW
%%CreationDate: Tue Feb 25 10:59:34 2020
%%Title: /home/tillo/Dokumente/github/badge-2020/hw/gerber/badge_rounded-drl_map.ps
%%Pages: 1
%%PageOrder: Ascend
%%BoundingBox: 0 0 596 842
%%DocumentMedia: A4 595 842 0 () ()
%%Orientation: Landscape
%%EndComments
%%BeginProlog
/line { newpath moveto lineto stroke } bind def
/cir0 { newpath 0 360 arc stroke } bind def
/cir1 { newpath 0 360 arc gsave fill grestore stroke } bind def
/cir2 { newpath 0 360 arc gsave fill grestore stroke } bind def
/arc0 { newpath arc stroke } bind def
/arc1 { newpath 4 index 4 index moveto arc closepath gsave fill
    grestore stroke } bind def
/arc2 { newpath 4 index 4 index moveto arc closepath gsave fill
    grestore stroke } bind def
/poly0 { stroke } bind def
/poly1 { closepath gsave fill grestore stroke } bind def
/poly2 { closepath gsave fill grestore stroke } bind def
/rect0 { rectstroke } bind def
/rect1 { rectfill } bind def
/rect2 { rectfill } bind def
/linemode0 { 0 setlinecap 0 setlinejoin 0 setlinewidth } bind def
/linemode1 { 1 setlinecap 1 setlinejoin } bind def
/dashedline { [200] 100 setdash } bind def
/solidline { [] 0 setdash } bind def
/phantomshow { moveto
    /KicadFont findfont 0.000001 scalefont setfont
    show } bind def
/textshow { gsave
    findfont exch scalefont setfont concat 1 scale 0 0 moveto show
    } bind def
/reencodefont {
  findfont dup length dict begin
  { 1 index /FID ne
    { def }
    { pop pop } ifelse
  } forall
  /Encoding ISOLatin1Encoding def
  currentdict
  end } bind def
/KicadFont /Helvetica reencodefont definefont pop
/KicadFont-Bold /Helvetica-Bold reencodefont definefont pop
/KicadFont-Oblique /Helvetica-Oblique reencodefont definefont pop
/KicadFont-BoldOblique /Helvetica-BoldOblique reencodefont definefont pop
%%EndProlog
%%Page: 1 1
%%BeginPageSetup
gsave
0.0072 0.0072 scale
linemode1
82680 0 translate 90 rotate
41.2668 setlinewidth
%%EndPageSetup
0 0 0 setrgbcolor
32.4935 setlinewidth
newpath
69320.1 66363.5 moveto
69238.6 66602.7 lineto
stroke
0 0 0 setrgbcolor
newpath
69152 66839.5 moveto
69060.4 67073.8 lineto
stroke
0 0 0 setrgbcolor
newpath
69533.2 65632.2 moveto
69467.5 65878.2 lineto
stroke
0 0 0 setrgbcolor
newpath
69648.6 65133.8 moveto
69593.6 65384 lineto
stroke
0 0 0 setrgbcolor
newpath
68153.7 68851 moveto
68019.6 69060 lineto
stroke
0 0 0 setrgbcolor
newpath
68283.3 68638.9 moveto
68153.7 68851 lineto
stroke
0 0 0 setrgbcolor
newpath
68644.7 67984.8 moveto
68528.9 68205.8 lineto
stroke
0 0 0 setrgbcolor
newpath
69698 64881.5 moveto
69648.6 65133.8 lineto
stroke
0 0 0 setrgbcolor
newpath
67591.4 69668 moveto
67440.2 69864.1 lineto
stroke
0 0 0 setrgbcolor
newpath
67738.4 69468.6 moveto
67591.4 69668 lineto
stroke
0 0 0 setrgbcolor
newpath
68862.3 67534.7 moveto
68755.9 67761.1 lineto
stroke
0 0 0 setrgbcolor
newpath
69060.4 67073.8 moveto
68963.8 67305.5 lineto
stroke
0 0 0 setrgbcolor
newpath
69396.4 66122 moveto
69320.1 66363.5 lineto
stroke
0 0 0 setrgbcolor
newpath
68528.9 68205.8 moveto
68408.4 68423.8 lineto
stroke
0 0 0 setrgbcolor
newpath
69467.5 65878.2 moveto
69396.4 66122 lineto
stroke
0 0 0 setrgbcolor
newpath
68019.6 69060 moveto
67881.2 69265.9 lineto
stroke
0 0 0 setrgbcolor
newpath
68408.4 68423.8 moveto
68283.3 68638.9 lineto
stroke
0 0 0 setrgbcolor
newpath
69741.9 64627.3 moveto
69698 64881.5 lineto
stroke
0 0 0 setrgbcolor
newpath
67881.2 69265.9 moveto
67738.4 69468.6 lineto
stroke
0 0 0 setrgbcolor
newpath
68755.9 67761.1 moveto
68644.7 67984.8 lineto
stroke
0 0 0 setrgbcolor
newpath
68963.8 67305.5 moveto
68862.3 67534.7 lineto
stroke
0 0 0 setrgbcolor
newpath
69593.6 65384 moveto
69533.2 65632.2 lineto
stroke
0 0 0 setrgbcolor
newpath
69238.6 66602.7 moveto
69152 66839.5 lineto
stroke
0 0 0 setrgbcolor
newpath
69740.4 60960.3 moveto
69779 61217.7 lineto
stroke
0 0 0 setrgbcolor
newpath
69144.4 58737.3 moveto
69231.9 58975.2 lineto
stroke
0 0 0 setrgbcolor
newpath
69875.4 63329.2 moveto
69860.4 63592.2 lineto
stroke
0 0 0 setrgbcolor
newpath
69860.1 62000.8 moveto
69875.3 62265.2 lineto
stroke
0 0 0 setrgbcolor
newpath
69887.5 62798.6 moveto
69884.5 63064.6 lineto
stroke
0 0 0 setrgbcolor
newpath
69590.6 60199.7 moveto
69646.1 60451.2 lineto
stroke
0 0 0 setrgbcolor
newpath
69875.3 62265.2 moveto
69884.5 62531.1 lineto
stroke
0 0 0 setrgbcolor
newpath
69646.1 60451.2 moveto
69696.1 60704.8 lineto
stroke
0 0 0 setrgbcolor
newpath
69779 61217.7 moveto
69811.9 61477 lineto
stroke
0 0 0 setrgbcolor
newpath
69231.9 58975.2 moveto
69314.2 59215.5 lineto
stroke
0 0 0 setrgbcolor
newpath
69884.5 63064.6 moveto
69875.4 63329.2 lineto
stroke
0 0 0 setrgbcolor
newpath
69696.1 60704.8 moveto
69740.4 60960.3 lineto
stroke
0 0 0 setrgbcolor
newpath
69463.1 59703.1 moveto
69529.6 59950.3 lineto
stroke
0 0 0 setrgbcolor
newpath
69884.5 62531.1 moveto
69887.5 62798.6 lineto
stroke
0 0 0 setrgbcolor
newpath
69811.9 61477 moveto
69839 61738 lineto
stroke
0 0 0 setrgbcolor
newpath
69839 61738 moveto
69860.1 62000.8 lineto
stroke
0 0 0 setrgbcolor
newpath
69314.2 59215.5 moveto
69391.3 59458.1 lineto
stroke
0 0 0 setrgbcolor
newpath
69529.6 59950.3 moveto
69590.6 60199.7 lineto
stroke
0 0 0 setrgbcolor
newpath
69780.2 64371.2 moveto
69741.9 64627.3 lineto
stroke
0 0 0 setrgbcolor
newpath
69812.7 64113.2 moveto
69780.2 64371.2 lineto
stroke
0 0 0 setrgbcolor
newpath
69839.5 63853.5 moveto
69812.7 64113.2 lineto
stroke
0 0 0 setrgbcolor
newpath
69391.3 59458.1 moveto
69463.1 59703.1 lineto
stroke
0 0 0 setrgbcolor
newpath
69860.4 63592.2 moveto
69839.5 63853.5 lineto
stroke
0 0 0 setrgbcolor
newpath
67520.3 59175.1 moveto
67562.1 59147.7 lineto
stroke
0 0 0 setrgbcolor
newpath
67918.6 66516.1 moveto
67887.5 66554.9 lineto
stroke
0 0 0 setrgbcolor
newpath
67942.7 66476.6 moveto
67918.6 66516.1 lineto
stroke
0 0 0 setrgbcolor
newpath
68354.3 60630.9 moveto
68401.6 60849.1 lineto
stroke
0 0 0 setrgbcolor
newpath
67974.4 59361 moveto
68119 59776.5 lineto
stroke
0 0 0 setrgbcolor
newpath
67974.4 66406.6 moveto
67942.7 66476.6 lineto
stroke
0 0 0 setrgbcolor
newpath
67920 59251.5 moveto
67943.4 59291.1 lineto
stroke
0 0 0 setrgbcolor
newpath
68119 65991.2 moveto
67974.4 66406.6 lineto
stroke
0 0 0 setrgbcolor
newpath
68184.6 65780.4 moveto
68119 65991.2 lineto
stroke
0 0 0 setrgbcolor
newpath
68302.3 65353.2 moveto
68245.7 65567.7 lineto
stroke
0 0 0 setrgbcolor
newpath
68596.7 62421.6 moveto
68604.5 62652.1 lineto
stroke
0 0 0 setrgbcolor
newpath
67615 59129.3 moveto
67679.2 59122.7 lineto
stroke
0 0 0 setrgbcolor
newpath
68542.8 61738.5 moveto
68565.8 61964.8 lineto
stroke
0 0 0 setrgbcolor
newpath
67889.8 59212.7 moveto
67920 59251.5 lineto
stroke
0 0 0 setrgbcolor
newpath
68444.1 64698.6 moveto
68401.6 64918.6 lineto
stroke
0 0 0 setrgbcolor
newpath
68604.5 62652.1 moveto
68607.1 62883.8 lineto
stroke
0 0 0 setrgbcolor
newpath
68245.7 65567.7 moveto
68184.6 65780.4 lineto
stroke
0 0 0 setrgbcolor
newpath
67562.1 59147.7 moveto
67615 59129.3 lineto
stroke
0 0 0 setrgbcolor
newpath
68354.3 65136.8 moveto
68302.3 65353.2 lineto
stroke
0 0 0 setrgbcolor
newpath
68604.5 63115.6 moveto
68596.7 63346 lineto
stroke
0 0 0 setrgbcolor
newpath
68481.9 61290.6 moveto
68514.8 61513.8 lineto
stroke
0 0 0 setrgbcolor
newpath
67468.4 59247.3 moveto
67489.2 59209.2 lineto
stroke
0 0 0 setrgbcolor
newpath
68401.6 60849.1 moveto
68444.1 61069 lineto
stroke
0 0 0 setrgbcolor
newpath
68184.6 59987.2 moveto
68245.7 60199.9 lineto
stroke
0 0 0 setrgbcolor
newpath
67679.2 59122.7 moveto
67747.5 59129.7 lineto
stroke
0 0 0 setrgbcolor
newpath
67489.2 59209.2 moveto
67520.3 59175.1 lineto
stroke
0 0 0 setrgbcolor
newpath
68607.1 62883.8 moveto
68604.5 63115.6 lineto
stroke
0 0 0 setrgbcolor
newpath
68565.8 61964.8 moveto
68583.8 62192.5 lineto
stroke
0 0 0 setrgbcolor
newpath
68119 59776.5 moveto
68184.6 59987.2 lineto
stroke
0 0 0 setrgbcolor
newpath
68401.6 64918.6 moveto
68354.3 65136.8 lineto
stroke
0 0 0 setrgbcolor
newpath
68481.9 64477.1 moveto
68444.1 64698.6 lineto
stroke
0 0 0 setrgbcolor
newpath
68514.8 64253.9 moveto
68481.9 64477.1 lineto
stroke
0 0 0 setrgbcolor
newpath
68583.8 62192.5 moveto
68596.7 62421.6 lineto
stroke
0 0 0 setrgbcolor
newpath
68542.8 64029.1 moveto
68514.8 64253.9 lineto
stroke
0 0 0 setrgbcolor
newpath
67851.7 59177.6 moveto
67889.8 59212.7 lineto
stroke
0 0 0 setrgbcolor
newpath
68565.8 63802.8 moveto
68542.8 64029.1 lineto
stroke
0 0 0 setrgbcolor
newpath
68583.8 63575.1 moveto
68565.8 63802.8 lineto
stroke
0 0 0 setrgbcolor
newpath
68596.7 63346 moveto
68583.8 63575.1 lineto
stroke
0 0 0 setrgbcolor
newpath
68514.8 61513.8 moveto
68542.8 61738.5 lineto
stroke
0 0 0 setrgbcolor
newpath
68444.1 61069 moveto
68481.9 61290.6 lineto
stroke
0 0 0 setrgbcolor
newpath
67457.6 59287.1 moveto
67468.4 59247.3 lineto
stroke
0 0 0 setrgbcolor
newpath
67747.5 59129.7 moveto
67804.7 59149 lineto
stroke
0 0 0 setrgbcolor
newpath
67943.4 59291.1 moveto
67974.4 59361 lineto
stroke
0 0 0 setrgbcolor
newpath
68302.3 60414.5 moveto
68354.3 60630.9 lineto
stroke
0 0 0 setrgbcolor
newpath
68245.7 60199.9 moveto
68302.3 60414.5 lineto
stroke
0 0 0 setrgbcolor
newpath
67804.7 59149 moveto
67851.7 59177.6 lineto
stroke
0 0 0 setrgbcolor
newpath
67685 59983.8 moveto
67616 59774.1 lineto
stroke
0 0 0 setrgbcolor
newpath
68087.2 61958 moveto
68062.8 61731.6 lineto
stroke
0 0 0 setrgbcolor
newpath
67912.1 64920.2 moveto
67957.4 64699.9 lineto
stroke
0 0 0 setrgbcolor
newpath
68062.4 64028.7 moveto
68087 63801.6 lineto
stroke
0 0 0 setrgbcolor
newpath
67610.6 66638.3 moveto
67557.7 66620 lineto
stroke
0 0 0 setrgbcolor
newpath
67746.9 65569.5 moveto
67806.8 65355 lineto
stroke
0 0 0 setrgbcolor
newpath
68106.3 62185.9 moveto
68087.2 61958 lineto
stroke
0 0 0 setrgbcolor
newpath
67484.8 66558.4 moveto
67464 66520.3 lineto
stroke
0 0 0 setrgbcolor
newpath
67863.7 60625.3 moveto
67808.9 60409.5 lineto
stroke
0 0 0 setrgbcolor
newpath
49358.8 66644.9 moveto
49358.9 66644.9 lineto
stroke
0 0 0 setrgbcolor
newpath
67538.6 66200.6 moveto
67612.7 65992.4 lineto
stroke
0 0 0 setrgbcolor
newpath
67861.9 65138.6 moveto
67912.1 64920.2 lineto
stroke
0 0 0 setrgbcolor
newpath
49423 66638.3 moveto
49358.8 66644.9 lineto
stroke
0 0 0 setrgbcolor
newpath
67957.4 64699.9 moveto
67997.5 64477.9 lineto
stroke
0 0 0 setrgbcolor
newpath
67808.9 60409.5 moveto
67749.4 60195.7 lineto
stroke
0 0 0 setrgbcolor
newpath
67806.8 65355 moveto
67861.9 65138.6 lineto
stroke
0 0 0 setrgbcolor
newpath
68062.8 61731.6 moveto
68033.2 61506.9 lineto
stroke
0 0 0 setrgbcolor
newpath
68131.3 62878.2 moveto
68128.3 62646 lineto
stroke
0 0 0 setrgbcolor
newpath
67674.8 66644.9 moveto
67610.6 66638.3 lineto
stroke
0 0 0 setrgbcolor
newpath
49517.6 66592.5 moveto
49475.8 66619.9 lineto
stroke
0 0 0 setrgbcolor
newpath
67749.4 60195.7 moveto
67685 59983.8 lineto
stroke
0 0 0 setrgbcolor
newpath
68120.1 62415.2 moveto
68106.3 62185.9 lineto
stroke
0 0 0 setrgbcolor
newpath
68128.3 63111.2 moveto
68131.3 62878.2 lineto
stroke
0 0 0 setrgbcolor
newpath
67456.3 59325.8 moveto
67457.6 59287.1 lineto
stroke
0 0 0 setrgbcolor
newpath
67464.3 59361 moveto
67456.3 59325.8 lineto
stroke
0 0 0 setrgbcolor
newpath
67958.5 61062.5 moveto
67913.6 60843 lineto
stroke
0 0 0 setrgbcolor
newpath
67542.4 59566.5 moveto
67464.3 59361 lineto
stroke
0 0 0 setrgbcolor
newpath
67682.1 65782 moveto
67746.9 65569.5 lineto
stroke
0 0 0 setrgbcolor
newpath
67515.9 66592.5 moveto
67484.8 66558.4 lineto
stroke
0 0 0 setrgbcolor
newpath
67913.6 60843 moveto
67863.7 60625.3 lineto
stroke
0 0 0 setrgbcolor
newpath
68033.2 61506.9 moveto
67998.4 61283.9 lineto
stroke
0 0 0 setrgbcolor
newpath
68120 63342.8 moveto
68128.3 63111.2 lineto
stroke
0 0 0 setrgbcolor
newpath
68106.2 63572.9 moveto
68120 63342.8 lineto
stroke
0 0 0 setrgbcolor
newpath
67453.2 66480.6 moveto
67451.9 66441.8 lineto
stroke
0 0 0 setrgbcolor
newpath
49475.8 66619.9 moveto
49423 66638.3 lineto
stroke
0 0 0 setrgbcolor
newpath
67451.9 66441.8 moveto
67459.9 66406.6 lineto
stroke
0 0 0 setrgbcolor
newpath
68128.3 62646 moveto
68120.1 62415.2 lineto
stroke
0 0 0 setrgbcolor
newpath
68032.6 64254.1 moveto
68062.4 64028.7 lineto
stroke
0 0 0 setrgbcolor
newpath
67998.4 61283.9 moveto
67958.5 61062.5 lineto
stroke
0 0 0 setrgbcolor
newpath
67557.7 66620 moveto
67515.9 66592.5 lineto
stroke
0 0 0 setrgbcolor
newpath
68087 63801.6 moveto
68106.2 63572.9 lineto
stroke
0 0 0 setrgbcolor
newpath
67612.7 65992.4 moveto
67682.1 65782 lineto
stroke
0 0 0 setrgbcolor
newpath
67997.5 64477.9 moveto
68032.6 64254.1 lineto
stroke
0 0 0 setrgbcolor
newpath
67464 66520.3 moveto
67453.2 66480.6 lineto
stroke
0 0 0 setrgbcolor
newpath
67459.9 66406.6 moveto
67538.6 66200.6 lineto
stroke
0 0 0 setrgbcolor
newpath
67616 59774.1 moveto
67542.4 59566.5 lineto
stroke
0 0 0 setrgbcolor
newpath
49120 60843 moveto
49075.1 61062.5 lineto
stroke
0 0 0 setrgbcolor
newpath
49286.1 59129.7 moveto
49354.5 59122.7 lineto
stroke
0 0 0 setrgbcolor
newpath
49471.5 59147.6 moveto
49513.3 59175.1 lineto
stroke
0 0 0 setrgbcolor
newpath
49121.5 64920.2 moveto
49171.7 65138.5 lineto
stroke
0 0 0 setrgbcolor
newpath
48902.3 62878.2 moveto
48905.3 63111.2 lineto
stroke
0 0 0 setrgbcolor
newpath
48913.5 62415.2 moveto
48905.3 62646 lineto
stroke
0 0 0 setrgbcolor
newpath
48970.8 61731.6 moveto
48946.4 61958 lineto
stroke
0 0 0 setrgbcolor
newpath
49565.2 59247.3 moveto
49576.1 59287 lineto
stroke
0 0 0 setrgbcolor
newpath
49354.5 59122.7 moveto
49418.7 59129.3 lineto
stroke
0 0 0 setrgbcolor
newpath
49544.4 59209.2 moveto
49565.2 59247.3 lineto
stroke
0 0 0 setrgbcolor
newpath
49581.7 66441.8 moveto
49580.4 66480.5 lineto
stroke
0 0 0 setrgbcolor
newpath
49351.5 65782 moveto
49421 65992.3 lineto
stroke
0 0 0 setrgbcolor
newpath
48946.7 63801.6 moveto
48971.2 64028.6 lineto
stroke
0 0 0 setrgbcolor
newpath
49036.1 64477.9 moveto
49076.2 64699.9 lineto
stroke
0 0 0 setrgbcolor
newpath
48971.2 64028.6 moveto
49001.1 64254.1 lineto
stroke
0 0 0 setrgbcolor
newpath
48927.3 62185.8 moveto
48913.5 62415.2 lineto
stroke
0 0 0 setrgbcolor
newpath
49577.4 59325.8 moveto
49569.3 59361 lineto
stroke
0 0 0 setrgbcolor
newpath
49000.4 61506.9 moveto
48970.8 61731.6 lineto
stroke
0 0 0 setrgbcolor
newpath
49491.2 59566.4 moveto
49417.6 59774.1 lineto
stroke
0 0 0 setrgbcolor
newpath
48905.3 63111.2 moveto
48913.6 63342.8 lineto
stroke
0 0 0 setrgbcolor
newpath
49513.3 59175.1 moveto
49544.4 59209.2 lineto
stroke
0 0 0 setrgbcolor
newpath
49573.7 66406.6 moveto
49581.7 66441.8 lineto
stroke
0 0 0 setrgbcolor
newpath
48927.4 63572.9 moveto
48946.7 63801.6 lineto
stroke
0 0 0 setrgbcolor
newpath
49576.1 59287 moveto
49577.4 59325.8 lineto
stroke
0 0 0 setrgbcolor
newpath
49226.8 65355 moveto
49286.8 65569.5 lineto
stroke
0 0 0 setrgbcolor
newpath
49348.6 59983.8 moveto
49284.3 60195.6 lineto
stroke
0 0 0 setrgbcolor
newpath
49035.2 61283.9 moveto
49000.4 61506.9 lineto
stroke
0 0 0 setrgbcolor
newpath
49418.7 59129.3 moveto
49471.5 59147.6 lineto
stroke
0 0 0 setrgbcolor
newpath
49076.2 64699.9 moveto
49121.5 64920.2 lineto
stroke
0 0 0 setrgbcolor
newpath
48905.3 62646 moveto
48902.3 62878.2 lineto
stroke
0 0 0 setrgbcolor
newpath
49169.9 60625.3 moveto
49120 60843 lineto
stroke
0 0 0 setrgbcolor
newpath
49284.3 60195.6 moveto
49224.7 60409.5 lineto
stroke
0 0 0 setrgbcolor
newpath
49417.6 59774.1 moveto
49348.6 59983.8 lineto
stroke
0 0 0 setrgbcolor
newpath
49548.8 66558.4 moveto
49517.6 66592.5 lineto
stroke
0 0 0 setrgbcolor
newpath
49569.6 66520.3 moveto
49548.8 66558.4 lineto
stroke
0 0 0 setrgbcolor
newpath
49580.4 66480.5 moveto
49569.6 66520.3 lineto
stroke
0 0 0 setrgbcolor
newpath
49495 66200.6 moveto
49573.7 66406.6 lineto
stroke
0 0 0 setrgbcolor
newpath
48946.4 61958 moveto
48927.3 62185.8 lineto
stroke
0 0 0 setrgbcolor
newpath
48913.6 63342.8 moveto
48927.4 63572.9 lineto
stroke
0 0 0 setrgbcolor
newpath
49001.1 64254.1 moveto
49036.1 64477.9 lineto
stroke
0 0 0 setrgbcolor
newpath
49421 65992.3 moveto
49495 66200.6 lineto
stroke
0 0 0 setrgbcolor
newpath
49286.8 65569.5 moveto
49351.5 65782 lineto
stroke
0 0 0 setrgbcolor
newpath
49569.3 59361 moveto
49491.2 59566.4 lineto
stroke
0 0 0 setrgbcolor
newpath
49075.1 61062.5 moveto
49035.2 61283.9 lineto
stroke
0 0 0 setrgbcolor
newpath
49224.7 60409.5 moveto
49169.9 60625.3 lineto
stroke
0 0 0 setrgbcolor
newpath
49171.7 65138.5 moveto
49226.8 65355 lineto
stroke
0 0 0 setrgbcolor
newpath
48632 64918.5 moveto
48589.5 64698.6 lineto
stroke
0 0 0 setrgbcolor
newpath
67440.2 69864.1 moveto
67284.9 70056.8 lineto
stroke
0 0 0 setrgbcolor
newpath
48490.8 61738.5 moveto
48518.8 61513.8 lineto
stroke
0 0 0 setrgbcolor
newpath
49090.9 66476.6 moveto
49059.2 66406.6 lineto
stroke
0 0 0 setrgbcolor
newpath
48679.3 60630.9 moveto
48731.3 60414.5 lineto
stroke
0 0 0 setrgbcolor
newpath
48518.8 64253.8 moveto
48490.8 64029.1 lineto
stroke
0 0 0 setrgbcolor
newpath
48518.8 61513.8 moveto
48551.7 61290.6 lineto
stroke
0 0 0 setrgbcolor
newpath
48551.7 64477 moveto
48518.8 64253.8 lineto
stroke
0 0 0 setrgbcolor
newpath
67284.9 70056.8 moveto
67125.6 70246.1 lineto
stroke
0 0 0 setrgbcolor
newpath
67125.6 70246.1 moveto
67125.6 70246.1 lineto
stroke
0 0 0 setrgbcolor
newpath
49143.8 59212.7 moveto
49181.9 59177.6 lineto
stroke
0 0 0 setrgbcolor
newpath
48731.3 60414.5 moveto
48787.8 60199.9 lineto
stroke
0 0 0 setrgbcolor
newpath
49290.3 66637.9 moveto
49232.7 66618.6 lineto
stroke
0 0 0 setrgbcolor
newpath
48449.7 63575.1 moveto
48436.8 63346 lineto
stroke
0 0 0 setrgbcolor
newpath
49229 59149 moveto
49286.1 59129.7 lineto
stroke
0 0 0 setrgbcolor
newpath
49115 66516.1 moveto
49090.9 66476.6 lineto
stroke
0 0 0 setrgbcolor
newpath
49181.9 59177.6 moveto
49229 59149 lineto
stroke
0 0 0 setrgbcolor
newpath
49059.2 59361 moveto
49090.2 59291 lineto
stroke
0 0 0 setrgbcolor
newpath
49113.6 59251.5 moveto
49143.8 59212.7 lineto
stroke
0 0 0 setrgbcolor
newpath
48914.6 65991.2 moveto
48849 65780.4 lineto
stroke
0 0 0 setrgbcolor
newpath
48467.8 61964.8 moveto
48490.8 61738.5 lineto
stroke
0 0 0 setrgbcolor
newpath
49232.7 66618.6 moveto
49184.9 66590 lineto
stroke
0 0 0 setrgbcolor
newpath
49090.2 59291 moveto
49113.6 59251.5 lineto
stroke
0 0 0 setrgbcolor
newpath
48849 59987.2 moveto
48914.6 59776.4 lineto
stroke
0 0 0 setrgbcolor
newpath
48589.5 61069 moveto
48632 60849.1 lineto
stroke
0 0 0 setrgbcolor
newpath
48490.8 64029.1 moveto
48467.8 63802.8 lineto
stroke
0 0 0 setrgbcolor
newpath
48436.8 63346 moveto
48429 63115.5 lineto
stroke
0 0 0 setrgbcolor
newpath
48467.8 63802.8 moveto
48449.7 63575.1 lineto
stroke
0 0 0 setrgbcolor
newpath
48632 60849.1 moveto
48679.3 60630.9 lineto
stroke
0 0 0 setrgbcolor
newpath
49146 66554.9 moveto
49115 66516.1 lineto
stroke
0 0 0 setrgbcolor
newpath
48787.8 60199.9 moveto
48849 59987.2 lineto
stroke
0 0 0 setrgbcolor
newpath
49358.9 66644.9 moveto
49290.3 66637.9 lineto
stroke
0 0 0 setrgbcolor
newpath
48551.7 61290.6 moveto
48589.5 61069 lineto
stroke
0 0 0 setrgbcolor
newpath
48429 63115.5 moveto
48426.4 62883.8 lineto
stroke
0 0 0 setrgbcolor
newpath
48589.5 64698.6 moveto
48551.7 64477 lineto
stroke
0 0 0 setrgbcolor
newpath
48436.8 62421.6 moveto
48449.7 62192.5 lineto
stroke
0 0 0 setrgbcolor
newpath
48679.3 65136.7 moveto
48632 64918.5 lineto
stroke
0 0 0 setrgbcolor
newpath
49059.2 66406.6 moveto
48914.6 65991.2 lineto
stroke
0 0 0 setrgbcolor
newpath
48731.3 65353.1 moveto
48679.3 65136.7 lineto
stroke
0 0 0 setrgbcolor
newpath
48426.4 62883.8 moveto
48429 62652.1 lineto
stroke
0 0 0 setrgbcolor
newpath
49184.9 66590 moveto
49146 66554.9 lineto
stroke
0 0 0 setrgbcolor
newpath
48449.7 62192.5 moveto
48467.8 61964.8 lineto
stroke
0 0 0 setrgbcolor
newpath
48849 65780.4 moveto
48787.8 65567.7 lineto
stroke
0 0 0 setrgbcolor
newpath
48787.8 65567.7 moveto
48731.3 65353.1 lineto
stroke
0 0 0 setrgbcolor
newpath
48914.6 59776.4 moveto
49059.2 59361 lineto
stroke
0 0 0 setrgbcolor
newpath
48429 62652.1 moveto
48436.8 62421.6 lineto
stroke
0 0 0 setrgbcolor
newpath
48776.3 68851 moveto
48646.7 68638.9 lineto
stroke
0 0 0 setrgbcolor
newpath
49645.1 70056.9 moveto
49489.8 69864.2 lineto
stroke
0 0 0 setrgbcolor
newpath
49338.6 69668.1 moveto
49191.6 69468.6 lineto
stroke
0 0 0 setrgbcolor
newpath
47966.2 67305.5 moveto
47869.6 67073.8 lineto
stroke
0 0 0 setrgbcolor
newpath
48910.4 69060.1 moveto
48776.3 68851 lineto
stroke
0 0 0 setrgbcolor
newpath
49191.6 69468.6 moveto
49048.8 69265.9 lineto
stroke
0 0 0 setrgbcolor
newpath
47336.4 65384 moveto
47281.4 65133.8 lineto
stroke
0 0 0 setrgbcolor
newpath
47778 66839.5 moveto
47691.4 66602.7 lineto
stroke
0 0 0 setrgbcolor
newpath
49804.4 70246.1 moveto
49645.1 70056.9 lineto
stroke
0 0 0 setrgbcolor
newpath
47396.8 65632.2 moveto
47336.4 65384 lineto
stroke
0 0 0 setrgbcolor
newpath
47462.5 65878.2 moveto
47396.8 65632.2 lineto
stroke
0 0 0 setrgbcolor
newpath
47533.6 66122 moveto
47462.5 65878.2 lineto
stroke
0 0 0 setrgbcolor
newpath
47609.9 66363.5 moveto
47533.6 66122 lineto
stroke
0 0 0 setrgbcolor
newpath
48174.1 67761.1 moveto
48067.8 67534.7 lineto
stroke
0 0 0 setrgbcolor
newpath
48401.1 68205.8 moveto
48285.3 67984.8 lineto
stroke
0 0 0 setrgbcolor
newpath
49048.8 69265.9 moveto
48910.4 69060.1 lineto
stroke
0 0 0 setrgbcolor
newpath
47691.4 66602.7 moveto
47609.9 66363.5 lineto
stroke
0 0 0 setrgbcolor
newpath
49489.8 69864.2 moveto
49338.6 69668.1 lineto
stroke
0 0 0 setrgbcolor
newpath
48646.7 68638.9 moveto
48521.6 68423.8 lineto
stroke
0 0 0 setrgbcolor
newpath
48067.8 67534.7 moveto
47966.2 67305.5 lineto
stroke
0 0 0 setrgbcolor
newpath
47869.6 67073.8 moveto
47778 66839.5 lineto
stroke
0 0 0 setrgbcolor
newpath
48285.3 67984.8 moveto
48174.1 67761.1 lineto
stroke
0 0 0 setrgbcolor
newpath
48521.6 68423.8 moveto
48401.1 68205.8 lineto
stroke
0 0 0 setrgbcolor
newpath
47054.7 62265.2 moveto
47069.9 62000.8 lineto
stroke
0 0 0 setrgbcolor
newpath
47042.5 62798.6 moveto
47045.5 62531.1 lineto
stroke
0 0 0 setrgbcolor
newpath
47090.5 63853.5 moveto
47069.6 63592.2 lineto
stroke
0 0 0 setrgbcolor
newpath
47339.4 60199.7 moveto
47400.4 59950.3 lineto
stroke
0 0 0 setrgbcolor
newpath
47283.9 60451.2 moveto
47339.4 60199.7 lineto
stroke
0 0 0 setrgbcolor
newpath
47188.1 64627.3 moveto
47149.8 64371.2 lineto
stroke
0 0 0 setrgbcolor
newpath
47189.6 60960.3 moveto
47233.9 60704.8 lineto
stroke
0 0 0 setrgbcolor
newpath
47045.5 62531.1 moveto
47054.7 62265.2 lineto
stroke
0 0 0 setrgbcolor
newpath
47233.9 60704.8 moveto
47283.9 60451.2 lineto
stroke
0 0 0 setrgbcolor
newpath
47151 61217.7 moveto
47189.6 60960.3 lineto
stroke
0 0 0 setrgbcolor
newpath
47054.6 63329.2 moveto
47045.5 63064.6 lineto
stroke
0 0 0 setrgbcolor
newpath
47281.4 65133.8 moveto
47232 64881.5 lineto
stroke
0 0 0 setrgbcolor
newpath
47069.9 62000.8 moveto
47091 61738 lineto
stroke
0 0 0 setrgbcolor
newpath
47045.5 63064.6 moveto
47042.5 62798.6 lineto
stroke
0 0 0 setrgbcolor
newpath
47069.6 63592.2 moveto
47054.6 63329.2 lineto
stroke
0 0 0 setrgbcolor
newpath
47232 64881.5 moveto
47188.1 64627.3 lineto
stroke
0 0 0 setrgbcolor
newpath
47149.8 64371.2 moveto
47117.3 64113.2 lineto
stroke
0 0 0 setrgbcolor
newpath
47118.1 61477 moveto
47151 61217.7 lineto
stroke
0 0 0 setrgbcolor
newpath
47400.4 59950.3 moveto
47466.9 59703.1 lineto
stroke
0 0 0 setrgbcolor
newpath
47091 61738 moveto
47118.1 61477 lineto
stroke
0 0 0 setrgbcolor
newpath
47538.7 59458.1 moveto
47615.8 59215.5 lineto
stroke
0 0 0 setrgbcolor
newpath
47466.9 59703.1 moveto
47538.7 59458.1 lineto
stroke
0 0 0 setrgbcolor
newpath
47117.3 64113.2 moveto
47090.5 63853.5 lineto
stroke
0 0 0 setrgbcolor
newpath
67887.5 66554.9 moveto
67848.7 66590 lineto
stroke
0 0 0 setrgbcolor
newpath
67674.7 66645 moveto
67674.8 66644.9 lineto
stroke
0 0 0 setrgbcolor
newpath
67848.7 66590 moveto
67800.9 66618.6 lineto
stroke
0 0 0 setrgbcolor
newpath
67743.3 66637.9 moveto
67674.7 66645 lineto
stroke
0 0 0 setrgbcolor
newpath
67800.9 66618.6 moveto
67743.3 66637.9 lineto
stroke
0 0 0 setrgbcolor
newpath
66639.3 78615.2 moveto
66582.9 78661.7 lineto
stroke
0 0 0 setrgbcolor
newpath
50411.8 78696.8 moveto
50347.1 78661.7 lineto
stroke
0 0 0 setrgbcolor
newpath
50149.3 70893.1 moveto
50114.5 70773 lineto
stroke
0 0 0 setrgbcolor
newpath
66582.9 78661.7 moveto
66518.2 78696.8 lineto
stroke
0 0 0 setrgbcolor
newpath
50068.4 70656.9 moveto
50012.7 70545.6 lineto
stroke
0 0 0 setrgbcolor
newpath
50114.5 70773 moveto
50068.4 70656.9 lineto
stroke
0 0 0 setrgbcolor
newpath
50179.1 78345.8 moveto
50179.1 71142.7 lineto
stroke
0 0 0 setrgbcolor
newpath
50347.1 78661.7 moveto
50290.7 78615.2 lineto
stroke
0 0 0 setrgbcolor
newpath
50209.1 78494.1 moveto
50186.9 78422.6 lineto
stroke
0 0 0 setrgbcolor
newpath
50290.7 78615.2 moveto
50244.2 78558.8 lineto
stroke
0 0 0 setrgbcolor
newpath
50483.4 78719 moveto
50411.8 78696.8 lineto
stroke
0 0 0 setrgbcolor
newpath
49804.2 70246.4 moveto
49804.4 70246.1 lineto
stroke
0 0 0 setrgbcolor
newpath
49879 70339.6 moveto
49804.2 70246.4 lineto
stroke
0 0 0 setrgbcolor
newpath
66446.7 78719 moveto
66369.9 78726.7 lineto
stroke
0 0 0 setrgbcolor
newpath
66518.2 78696.8 moveto
66446.7 78719 lineto
stroke
0 0 0 setrgbcolor
newpath
66369.9 78726.7 moveto
50560.1 78726.7 lineto
stroke
0 0 0 setrgbcolor
newpath
50179.1 71142.7 moveto
50171.4 71016.6 lineto
stroke
0 0 0 setrgbcolor
newpath
49949.1 70439.6 moveto
49879 70339.6 lineto
stroke
0 0 0 setrgbcolor
newpath
50171.4 71016.6 moveto
50149.3 70893.1 lineto
stroke
0 0 0 setrgbcolor
newpath
50186.9 78422.6 moveto
50179.1 78345.8 lineto
stroke
0 0 0 setrgbcolor
newpath
50244.2 78558.8 moveto
50209.1 78494.1 lineto
stroke
0 0 0 setrgbcolor
newpath
50560.1 78726.7 moveto
50483.4 78719 lineto
stroke
0 0 0 setrgbcolor
newpath
50012.7 70545.6 moveto
49949.1 70439.6 lineto
stroke
0 0 0 setrgbcolor
newpath
66815.5 70773 moveto
66780.7 70893.1 lineto
stroke
0 0 0 setrgbcolor
newpath
66861.6 70656.9 moveto
66815.5 70773 lineto
stroke
0 0 0 setrgbcolor
newpath
66743.1 78422.6 moveto
66720.9 78494.1 lineto
stroke
0 0 0 setrgbcolor
newpath
66750.8 78345.8 moveto
66743.1 78422.6 lineto
stroke
0 0 0 setrgbcolor
newpath
66917.3 70545.6 moveto
66861.6 70656.9 lineto
stroke
0 0 0 setrgbcolor
newpath
66758.6 71016.6 moveto
66750.8 71142.7 lineto
stroke
0 0 0 setrgbcolor
newpath
66685.8 78558.8 moveto
66639.3 78615.2 lineto
stroke
0 0 0 setrgbcolor
newpath
66980.9 70439.6 moveto
66917.3 70545.6 lineto
stroke
0 0 0 setrgbcolor
newpath
66720.9 78494.1 moveto
66685.8 78558.8 lineto
stroke
0 0 0 setrgbcolor
newpath
66750.8 71142.7 moveto
66750.8 78345.8 lineto
stroke
0 0 0 setrgbcolor
newpath
66780.7 70893.1 moveto
66758.6 71016.6 lineto
stroke
0 0 0 setrgbcolor
newpath
49514.3 55701.5 moveto
49671.2 55508.3 lineto
stroke
0 0 0 setrgbcolor
newpath
49069.1 56301.4 moveto
49213.2 56098.1 lineto
stroke
0 0 0 setrgbcolor
newpath
50026.2 55028.2 moveto
50077.5 54921.1 lineto
stroke
0 0 0 setrgbcolor
newpath
49967.2 55130.5 moveto
50026.2 55028.2 lineto
stroke
0 0 0 setrgbcolor
newpath
49361.7 55898.1 moveto
49514.3 55701.5 lineto
stroke
0 0 0 setrgbcolor
newpath
48929.3 56508 moveto
49069.1 56301.4 lineto
stroke
0 0 0 setrgbcolor
newpath
49902 55227.5 moveto
49967.2 55130.5 lineto
stroke
0 0 0 setrgbcolor
newpath
49671.2 55508.3 moveto
49832.1 55318.7 lineto
stroke
0 0 0 setrgbcolor
newpath
47698.1 58975.2 moveto
47785.6 58737.3 lineto
stroke
0 0 0 setrgbcolor
newpath
47878.1 58502 moveto
47975.7 58269.2 lineto
stroke
0 0 0 setrgbcolor
newpath
48793.9 56717.7 moveto
48929.3 56508 lineto
stroke
0 0 0 setrgbcolor
newpath
47615.8 59215.5 moveto
47698.1 58975.2 lineto
stroke
0 0 0 setrgbcolor
newpath
48078.3 58039.1 moveto
48185.7 57811.7 lineto
stroke
0 0 0 setrgbcolor
newpath
48415 57365.3 moveto
48536.7 57146.4 lineto
stroke
0 0 0 setrgbcolor
newpath
49213.2 56098.1 moveto
49361.7 55898.1 lineto
stroke
0 0 0 setrgbcolor
newpath
48185.7 57811.7 moveto
48298 57587.1 lineto
stroke
0 0 0 setrgbcolor
newpath
47975.7 58269.2 moveto
48078.3 58039.1 lineto
stroke
0 0 0 setrgbcolor
newpath
50077.5 54921.1 moveto
50119.9 54809.9 lineto
stroke
0 0 0 setrgbcolor
newpath
48663 56930.6 moveto
48793.9 56717.7 lineto
stroke
0 0 0 setrgbcolor
newpath
49832.1 55318.7 moveto
49902 55227.5 lineto
stroke
0 0 0 setrgbcolor
newpath
48536.7 57146.4 moveto
48663 56930.6 lineto
stroke
0 0 0 setrgbcolor
newpath
47785.6 58737.3 moveto
47878.1 58502 lineto
stroke
0 0 0 setrgbcolor
newpath
48298 57587.1 moveto
48415 57365.3 lineto
stroke
0 0 0 setrgbcolor
newpath
67258.8 55508.3 moveto
67415.7 55701.5 lineto
stroke
0 0 0 setrgbcolor
newpath
67568.3 55898.1 moveto
67716.8 56098.1 lineto
stroke
0 0 0 setrgbcolor
newpath
66962.8 55130.5 moveto
67028 55227.5 lineto
stroke
0 0 0 setrgbcolor
newpath
66757.9 54577.3 moveto
66778.1 54695.2 lineto
stroke
0 0 0 setrgbcolor
newpath
69051.9 58502 moveto
69144.4 58737.3 lineto
stroke
0 0 0 setrgbcolor
newpath
67415.7 55701.5 moveto
67568.3 55898.1 lineto
stroke
0 0 0 setrgbcolor
newpath
68632 57587.1 moveto
68744.3 57811.7 lineto
stroke
0 0 0 setrgbcolor
newpath
68744.3 57811.7 moveto
68851.7 58039.1 lineto
stroke
0 0 0 setrgbcolor
newpath
68515 57365.3 moveto
68632 57587.1 lineto
stroke
0 0 0 setrgbcolor
newpath
68851.7 58039.1 moveto
68954.3 58269.2 lineto
stroke
0 0 0 setrgbcolor
newpath
68136.1 56717.7 moveto
68267 56930.6 lineto
stroke
0 0 0 setrgbcolor
newpath
68393.3 57146.4 moveto
68515 57365.3 lineto
stroke
0 0 0 setrgbcolor
newpath
67097.9 55318.7 moveto
67258.8 55508.3 lineto
stroke
0 0 0 setrgbcolor
newpath
68954.3 58269.2 moveto
69051.9 58502 lineto
stroke
0 0 0 setrgbcolor
newpath
68267 56930.6 moveto
68393.3 57146.4 lineto
stroke
0 0 0 setrgbcolor
newpath
68000.7 56508 moveto
68136.1 56717.7 lineto
stroke
0 0 0 setrgbcolor
newpath
66852.5 54921.1 moveto
66903.9 55028.2 lineto
stroke
0 0 0 setrgbcolor
newpath
66810.1 54809.9 moveto
66852.5 54921.1 lineto
stroke
0 0 0 setrgbcolor
newpath
67028 55227.5 moveto
67097.9 55318.7 lineto
stroke
0 0 0 setrgbcolor
newpath
67860.9 56301.4 moveto
68000.7 56508 lineto
stroke
0 0 0 setrgbcolor
newpath
67716.8 56098.1 moveto
67860.9 56301.4 lineto
stroke
0 0 0 setrgbcolor
newpath
66778.1 54695.2 moveto
66810.1 54809.9 lineto
stroke
0 0 0 setrgbcolor
newpath
66903.9 55028.2 moveto
66962.8 55130.5 lineto
stroke
0 0 0 setrgbcolor
newpath
50560.1 37025.3 moveto
66369.9 37025.3 lineto
stroke
0 0 0 setrgbcolor
newpath
50209.1 37257.9 moveto
50244.2 37193.2 lineto
stroke
0 0 0 setrgbcolor
newpath
50179.2 37406.2 moveto
50186.9 37329.4 lineto
stroke
0 0 0 setrgbcolor
newpath
50179.2 54457 moveto
50179.2 37406.2 lineto
stroke
0 0 0 setrgbcolor
newpath
50290.7 37136.8 moveto
50347.1 37090.3 lineto
stroke
0 0 0 setrgbcolor
newpath
50347.1 37090.3 moveto
50411.8 37055.2 lineto
stroke
0 0 0 setrgbcolor
newpath
50151.9 54695.2 moveto
50172.1 54577.3 lineto
stroke
0 0 0 setrgbcolor
newpath
66750.8 54457 moveto
66757.9 54577.3 lineto
stroke
0 0 0 setrgbcolor
newpath
66750.8 37406.2 moveto
66750.8 54457 lineto
stroke
0 0 0 setrgbcolor
newpath
50483.4 37033 moveto
50560.1 37025.3 lineto
stroke
0 0 0 setrgbcolor
newpath
50244.2 37193.2 moveto
50290.7 37136.8 lineto
stroke
0 0 0 setrgbcolor
newpath
66743.1 37329.4 moveto
66750.8 37406.2 lineto
stroke
0 0 0 setrgbcolor
newpath
66685.8 37193.2 moveto
66720.9 37257.9 lineto
stroke
0 0 0 setrgbcolor
newpath
66369.9 37025.3 moveto
66446.7 37033 lineto
stroke
0 0 0 setrgbcolor
newpath
50186.9 37329.4 moveto
50209.1 37257.9 lineto
stroke
0 0 0 setrgbcolor
newpath
50172.1 54577.3 moveto
50179.2 54457 lineto
stroke
0 0 0 setrgbcolor
newpath
66639.3 37136.8 moveto
66685.8 37193.2 lineto
stroke
0 0 0 setrgbcolor
newpath
66446.7 37033 moveto
66518.2 37055.2 lineto
stroke
0 0 0 setrgbcolor
newpath
50411.8 37055.2 moveto
50483.4 37033 lineto
stroke
0 0 0 setrgbcolor
newpath
50119.9 54809.9 moveto
50151.9 54695.2 lineto
stroke
0 0 0 setrgbcolor
newpath
66720.9 37257.9 moveto
66743.1 37329.4 lineto
stroke
0 0 0 setrgbcolor
newpath
66582.9 37090.3 moveto
66639.3 37136.8 lineto
stroke
0 0 0 setrgbcolor
newpath
66518.2 37055.2 moveto
66582.9 37090.3 lineto
stroke
0 0 0 setrgbcolor
newpath
67125.8 70246.4 moveto
67051 70339.6 lineto
stroke
0 0 0 setrgbcolor
newpath
67125.6 70246.1 moveto
67125.8 70246.4 lineto
stroke
0 0 0 setrgbcolor
newpath
67051 70339.6 moveto
66980.9 70439.6 lineto
stroke
78.7399 setlinewidth
newpath
51017.9 53694.9 moveto
51147.9 53564.9 lineto
stroke
newpath
51147.9 53694.9 moveto
51017.9 53564.9 lineto
stroke
newpath
51100.5 74823.5 moveto
51230.4 74693.5 lineto
stroke
newpath
51230.4 74823.5 moveto
51100.5 74693.5 lineto
stroke
newpath
51430.6 76804.3 moveto
51560.6 76674.3 lineto
stroke
newpath
51560.6 76804.3 moveto
51430.6 76674.3 lineto
stroke
newpath
51430.6 76144 moveto
51560.6 76014.1 lineto
stroke
newpath
51560.6 76144 moveto
51430.6 76014.1 lineto
stroke
newpath
53087.1 77470.4 moveto
53217.1 77340.4 lineto
stroke
newpath
53217.1 77470.4 moveto
53087.1 77340.4 lineto
stroke
newpath
54071.7 51537 moveto
54201.7 51407 lineto
stroke
newpath
54201.7 51537 moveto
54071.7 51407 lineto
stroke
newpath
54731.9 75731.4 moveto
54861.9 75601.4 lineto
stroke
newpath
54861.9 75731.4 moveto
54731.9 75601.4 lineto
stroke
newpath
56836.6 48825.4 moveto
56966.5 48695.5 lineto
stroke
newpath
56966.5 48825.4 moveto
56836.6 48695.5 lineto
stroke
newpath
57785.7 78001 moveto
57915.7 77871.1 lineto
stroke
newpath
57915.7 78001 moveto
57785.7 77871.1 lineto
stroke
newpath
58404.7 78001 moveto
58534.7 77871.1 lineto
stroke
newpath
58534.7 78001 moveto
58404.7 77871.1 lineto
stroke
newpath
59023.7 78001 moveto
59153.7 77871.1 lineto
stroke
newpath
59153.7 78001 moveto
59023.7 77871.1 lineto
stroke
newpath
61801 51554.8 moveto
61931 51424.8 lineto
stroke
newpath
61931 51554.8 moveto
61801 51424.8 lineto
stroke
newpath
62077.4 50971.3 moveto
62207.4 50841.3 lineto
stroke
newpath
62207.4 50971.3 moveto
62077.4 50841.3 lineto
stroke
newpath
63975.7 46019.3 moveto
64105.7 45889.3 lineto
stroke
newpath
64105.7 46019.3 moveto
63975.7 45889.3 lineto
stroke
newpath
64305.8 46019.3 moveto
64435.8 45889.3 lineto
stroke
newpath
64435.8 46019.3 moveto
64305.8 45889.3 lineto
stroke
65856.4 49668.3 162.468 cir0
65856.4 48843 162.468 cir0
65856.4 48017.6 162.468 cir0
65856.4 47192.3 162.468 cir0
65856.4 46367 162.468 cir0
65856.4 45541.6 162.468 cir0
65856.4 44716.3 162.468 cir0
65856.4 43891 162.468 cir0
65856.4 43065.6 162.468 cir0
65856.4 42240.3 162.468 cir0
65856.4 41415 162.468 cir0
65856.4 40589.6 162.468 cir0
51041.7 49668.3 162.468 cir0
51041.7 48843 162.468 cir0
51041.7 48017.6 162.468 cir0
51041.7 47192.3 162.468 cir0
51041.7 46367 162.468 cir0
51041.7 45541.6 162.468 cir0
51041.7 44716.3 162.468 cir0
51041.7 43891 162.468 cir0
51041.7 43065.6 162.468 cir0
51041.7 42240.3 162.468 cir0
51041.7 41415 162.468 cir0
51041.7 40589.6 162.468 cir0
51867 49668.3 162.468 cir0
51867 48843 162.468 cir0
51867 48017.6 162.468 cir0
51867 47192.3 162.468 cir0
51867 46367 162.468 cir0
51867 45541.6 162.468 cir0
51867 44716.3 162.468 cir0
51867 43891 162.468 cir0
51867 43065.6 162.468 cir0
51867 42240.3 162.468 cir0
51867 41415 162.468 cir0
51867 40589.6 162.468 cir0
65031.1 49668.3 162.468 cir0
65031.1 48843 162.468 cir0
65031.1 48017.6 162.468 cir0
65031.1 47192.3 162.468 cir0
65031.1 46367 162.468 cir0
65031.1 45541.6 162.468 cir0
65031.1 44716.3 162.468 cir0
65031.1 43891 162.468 cir0
65031.1 43065.6 162.468 cir0
65031.1 42240.3 162.468 cir0
65031.1 41415 162.468 cir0
65031.1 40589.6 162.468 cir0
newpath
63710.6 52309.4 moveto
63710.6 51979.3 lineto
stroke
newpath
63545.5 52144.3 moveto
63875.6 52144.3 lineto
stroke
newpath
63710.6 51484 moveto
63710.6 51153.9 lineto
stroke
newpath
63545.5 51319 moveto
63875.6 51319 lineto
stroke
newpath
64535.9 52309.4 moveto
64535.9 51979.3 lineto
stroke
newpath
64370.8 52144.3 moveto
64701 52144.3 lineto
stroke
newpath
64535.9 51484 moveto
64535.9 51153.9 lineto
stroke
newpath
64370.8 51319 moveto
64701 51319 lineto
stroke
newpath
65361.2 52309.4 moveto
65361.2 51979.3 lineto
stroke
newpath
65196.2 52144.3 moveto
65526.3 52144.3 lineto
stroke
newpath
65361.2 51484 moveto
65361.2 51153.9 lineto
stroke
newpath
65196.2 51319 moveto
65526.3 51319 lineto
stroke
newpath
51660.7 52309.4 moveto
51660.7 51979.3 lineto
stroke
newpath
51495.6 52144.3 moveto
51825.7 52144.3 lineto
stroke
newpath
51660.7 51484 moveto
51660.7 51153.9 lineto
stroke
newpath
51495.6 51319 moveto
51825.7 51319 lineto
stroke
newpath
52486 52309.4 moveto
52486 51979.3 lineto
stroke
newpath
52320.9 52144.3 moveto
52651.1 52144.3 lineto
stroke
newpath
52486 51484 moveto
52486 51153.9 lineto
stroke
newpath
52320.9 51319 moveto
52651.1 51319 lineto
stroke
newpath
53311.3 52309.4 moveto
53311.3 51979.3 lineto
stroke
newpath
53146.3 52144.3 moveto
53476.4 52144.3 lineto
stroke
newpath
53311.3 51484 moveto
53311.3 51153.9 lineto
stroke
newpath
53146.3 51319 moveto
53476.4 51319 lineto
stroke
newpath
53644 49459.4 moveto
53644 49712.1 lineto
53391.3 49712.1 lineto
53391.3 49459.4 lineto
53644 49459.4 lineto
poly0
newpath
53644 48634.1 moveto
53644 48886.8 lineto
53391.3 48886.8 lineto
53391.3 48634.1 lineto
53644 48634.1 lineto
poly0
newpath
53644 47808.7 moveto
53644 48061.5 lineto
53391.3 48061.5 lineto
53391.3 47808.7 lineto
53644 47808.7 lineto
poly0
newpath
53644 46983.4 moveto
53644 47236.1 lineto
53391.3 47236.1 lineto
53391.3 46983.4 lineto
53644 46983.4 lineto
poly0
newpath
53644 46158.1 moveto
53644 46410.8 lineto
53391.3 46410.8 lineto
53391.3 46158.1 lineto
53644 46158.1 lineto
poly0
newpath
53644 45332.7 moveto
53644 45585.5 lineto
53391.3 45585.5 lineto
53391.3 45332.7 lineto
53644 45332.7 lineto
poly0
newpath
53644 44507.4 moveto
53644 44760.1 lineto
53391.3 44760.1 lineto
53391.3 44507.4 lineto
53644 44507.4 lineto
poly0
newpath
53644 43682.1 moveto
53644 43934.8 lineto
53391.3 43934.8 lineto
53391.3 43682.1 lineto
53644 43682.1 lineto
poly0
newpath
53644 42856.7 moveto
53644 43109.5 lineto
53391.3 43109.5 lineto
53391.3 42856.7 lineto
53644 42856.7 lineto
poly0
newpath
53644 42031.4 moveto
53644 42284.1 lineto
53391.3 42284.1 lineto
53391.3 42031.4 lineto
53644 42031.4 lineto
poly0
newpath
53644 41206.1 moveto
53644 41458.8 lineto
53391.3 41458.8 lineto
53391.3 41206.1 lineto
53644 41206.1 lineto
poly0
newpath
53644 40380.7 moveto
53644 40633.5 lineto
53391.3 40633.5 lineto
53391.3 40380.7 lineto
53644 40380.7 lineto
poly0
newpath
53644 39555.4 moveto
53644 39808.1 lineto
53391.3 39808.1 lineto
53391.3 39555.4 lineto
53644 39555.4 lineto
poly0
newpath
53644 38730 moveto
53644 38982.8 lineto
53391.3 38982.8 lineto
53391.3 38730 lineto
53644 38730 lineto
poly0
newpath
53644 37904.7 moveto
53644 38157.5 lineto
53391.3 38157.5 lineto
53391.3 37904.7 lineto
53644 37904.7 lineto
poly0
newpath
54469.4 49459.4 moveto
54469.4 49712.1 lineto
54216.6 49712.1 lineto
54216.6 49459.4 lineto
54469.4 49459.4 lineto
poly0
newpath
54469.4 48634.1 moveto
54469.4 48886.8 lineto
54216.6 48886.8 lineto
54216.6 48634.1 lineto
54469.4 48634.1 lineto
poly0
newpath
54469.4 47808.7 moveto
54469.4 48061.5 lineto
54216.6 48061.5 lineto
54216.6 47808.7 lineto
54469.4 47808.7 lineto
poly0
newpath
54469.4 46983.4 moveto
54469.4 47236.1 lineto
54216.6 47236.1 lineto
54216.6 46983.4 lineto
54469.4 46983.4 lineto
poly0
newpath
54469.4 46158.1 moveto
54469.4 46410.8 lineto
54216.6 46410.8 lineto
54216.6 46158.1 lineto
54469.4 46158.1 lineto
poly0
newpath
54469.4 45332.7 moveto
54469.4 45585.5 lineto
54216.6 45585.5 lineto
54216.6 45332.7 lineto
54469.4 45332.7 lineto
poly0
newpath
54469.4 44507.4 moveto
54469.4 44760.1 lineto
54216.6 44760.1 lineto
54216.6 44507.4 lineto
54469.4 44507.4 lineto
poly0
newpath
54469.4 43682.1 moveto
54469.4 43934.8 lineto
54216.6 43934.8 lineto
54216.6 43682.1 lineto
54469.4 43682.1 lineto
poly0
newpath
54469.4 42856.7 moveto
54469.4 43109.5 lineto
54216.6 43109.5 lineto
54216.6 42856.7 lineto
54469.4 42856.7 lineto
poly0
newpath
54469.4 42031.4 moveto
54469.4 42284.1 lineto
54216.6 42284.1 lineto
54216.6 42031.4 lineto
54469.4 42031.4 lineto
poly0
newpath
54469.4 41206.1 moveto
54469.4 41458.8 lineto
54216.6 41458.8 lineto
54216.6 41206.1 lineto
54469.4 41206.1 lineto
poly0
newpath
54469.4 40380.7 moveto
54469.4 40633.5 lineto
54216.6 40633.5 lineto
54216.6 40380.7 lineto
54469.4 40380.7 lineto
poly0
newpath
54469.4 39555.4 moveto
54469.4 39808.1 lineto
54216.6 39808.1 lineto
54216.6 39555.4 lineto
54469.4 39555.4 lineto
poly0
newpath
54469.4 38730 moveto
54469.4 38982.8 lineto
54216.6 38982.8 lineto
54216.6 38730 lineto
54469.4 38730 lineto
poly0
newpath
54469.4 37904.7 moveto
54469.4 38157.5 lineto
54216.6 38157.5 lineto
54216.6 37904.7 lineto
54469.4 37904.7 lineto
poly0
newpath
55294.7 49459.4 moveto
55294.7 49712.1 lineto
55042 49712.1 lineto
55042 49459.4 lineto
55294.7 49459.4 lineto
poly0
newpath
55294.7 48634.1 moveto
55294.7 48886.8 lineto
55042 48886.8 lineto
55042 48634.1 lineto
55294.7 48634.1 lineto
poly0
newpath
55294.7 47808.7 moveto
55294.7 48061.5 lineto
55042 48061.5 lineto
55042 47808.7 lineto
55294.7 47808.7 lineto
poly0
newpath
55294.7 46983.4 moveto
55294.7 47236.1 lineto
55042 47236.1 lineto
55042 46983.4 lineto
55294.7 46983.4 lineto
poly0
newpath
55294.7 46158.1 moveto
55294.7 46410.8 lineto
55042 46410.8 lineto
55042 46158.1 lineto
55294.7 46158.1 lineto
poly0
newpath
55294.7 45332.7 moveto
55294.7 45585.5 lineto
55042 45585.5 lineto
55042 45332.7 lineto
55294.7 45332.7 lineto
poly0
newpath
55294.7 44507.4 moveto
55294.7 44760.1 lineto
55042 44760.1 lineto
55042 44507.4 lineto
55294.7 44507.4 lineto
poly0
newpath
55294.7 43682.1 moveto
55294.7 43934.8 lineto
55042 43934.8 lineto
55042 43682.1 lineto
55294.7 43682.1 lineto
poly0
newpath
55294.7 42856.7 moveto
55294.7 43109.5 lineto
55042 43109.5 lineto
55042 42856.7 lineto
55294.7 42856.7 lineto
poly0
newpath
55294.7 42031.4 moveto
55294.7 42284.1 lineto
55042 42284.1 lineto
55042 42031.4 lineto
55294.7 42031.4 lineto
poly0
newpath
55294.7 41206.1 moveto
55294.7 41458.8 lineto
55042 41458.8 lineto
55042 41206.1 lineto
55294.7 41206.1 lineto
poly0
newpath
55294.7 40380.7 moveto
55294.7 40633.5 lineto
55042 40633.5 lineto
55042 40380.7 lineto
55294.7 40380.7 lineto
poly0
newpath
55294.7 39555.4 moveto
55294.7 39808.1 lineto
55042 39808.1 lineto
55042 39555.4 lineto
55294.7 39555.4 lineto
poly0
newpath
55294.7 38730 moveto
55294.7 38982.8 lineto
55042 38982.8 lineto
55042 38730 lineto
55294.7 38730 lineto
poly0
newpath
55294.7 37904.7 moveto
55294.7 38157.5 lineto
55042 38157.5 lineto
55042 37904.7 lineto
55294.7 37904.7 lineto
poly0
newpath
56120 49459.4 moveto
56120 49712.1 lineto
55867.3 49712.1 lineto
55867.3 49459.4 lineto
56120 49459.4 lineto
poly0
newpath
56120 48634.1 moveto
56120 48886.8 lineto
55867.3 48886.8 lineto
55867.3 48634.1 lineto
56120 48634.1 lineto
poly0
newpath
56120 47808.7 moveto
56120 48061.5 lineto
55867.3 48061.5 lineto
55867.3 47808.7 lineto
56120 47808.7 lineto
poly0
newpath
56120 46983.4 moveto
56120 47236.1 lineto
55867.3 47236.1 lineto
55867.3 46983.4 lineto
56120 46983.4 lineto
poly0
newpath
56120 46158.1 moveto
56120 46410.8 lineto
55867.3 46410.8 lineto
55867.3 46158.1 lineto
56120 46158.1 lineto
poly0
newpath
56120 45332.7 moveto
56120 45585.5 lineto
55867.3 45585.5 lineto
55867.3 45332.7 lineto
56120 45332.7 lineto
poly0
newpath
56120 44507.4 moveto
56120 44760.1 lineto
55867.3 44760.1 lineto
55867.3 44507.4 lineto
56120 44507.4 lineto
poly0
newpath
56120 43682.1 moveto
56120 43934.8 lineto
55867.3 43934.8 lineto
55867.3 43682.1 lineto
56120 43682.1 lineto
poly0
newpath
56120 42856.7 moveto
56120 43109.5 lineto
55867.3 43109.5 lineto
55867.3 42856.7 lineto
56120 42856.7 lineto
poly0
newpath
56120 42031.4 moveto
56120 42284.1 lineto
55867.3 42284.1 lineto
55867.3 42031.4 lineto
56120 42031.4 lineto
poly0
newpath
56120 41206.1 moveto
56120 41458.8 lineto
55867.3 41458.8 lineto
55867.3 41206.1 lineto
56120 41206.1 lineto
poly0
newpath
56120 40380.7 moveto
56120 40633.5 lineto
55867.3 40633.5 lineto
55867.3 40380.7 lineto
56120 40380.7 lineto
poly0
newpath
56120 39555.4 moveto
56120 39808.1 lineto
55867.3 39808.1 lineto
55867.3 39555.4 lineto
56120 39555.4 lineto
poly0
newpath
56120 38730 moveto
56120 38982.8 lineto
55867.3 38982.8 lineto
55867.3 38730 lineto
56120 38730 lineto
poly0
newpath
56120 37904.7 moveto
56120 38157.5 lineto
55867.3 38157.5 lineto
55867.3 37904.7 lineto
56120 37904.7 lineto
poly0
newpath
61072.1 49459.4 moveto
61072.1 49712.1 lineto
60819.3 49712.1 lineto
60819.3 49459.4 lineto
61072.1 49459.4 lineto
poly0
newpath
61072.1 48634.1 moveto
61072.1 48886.8 lineto
60819.3 48886.8 lineto
60819.3 48634.1 lineto
61072.1 48634.1 lineto
poly0
newpath
61072.1 47808.7 moveto
61072.1 48061.5 lineto
60819.3 48061.5 lineto
60819.3 47808.7 lineto
61072.1 47808.7 lineto
poly0
newpath
61072.1 46983.4 moveto
61072.1 47236.1 lineto
60819.3 47236.1 lineto
60819.3 46983.4 lineto
61072.1 46983.4 lineto
poly0
newpath
61072.1 46158.1 moveto
61072.1 46410.8 lineto
60819.3 46410.8 lineto
60819.3 46158.1 lineto
61072.1 46158.1 lineto
poly0
newpath
61072.1 45332.7 moveto
61072.1 45585.5 lineto
60819.3 45585.5 lineto
60819.3 45332.7 lineto
61072.1 45332.7 lineto
poly0
newpath
61072.1 44507.4 moveto
61072.1 44760.1 lineto
60819.3 44760.1 lineto
60819.3 44507.4 lineto
61072.1 44507.4 lineto
poly0
newpath
61072.1 43682.1 moveto
61072.1 43934.8 lineto
60819.3 43934.8 lineto
60819.3 43682.1 lineto
61072.1 43682.1 lineto
poly0
newpath
61072.1 42856.7 moveto
61072.1 43109.5 lineto
60819.3 43109.5 lineto
60819.3 42856.7 lineto
61072.1 42856.7 lineto
poly0
newpath
61072.1 42031.4 moveto
61072.1 42284.1 lineto
60819.3 42284.1 lineto
60819.3 42031.4 lineto
61072.1 42031.4 lineto
poly0
newpath
61072.1 41206.1 moveto
61072.1 41458.8 lineto
60819.3 41458.8 lineto
60819.3 41206.1 lineto
61072.1 41206.1 lineto
poly0
newpath
61072.1 40380.7 moveto
61072.1 40633.5 lineto
60819.3 40633.5 lineto
60819.3 40380.7 lineto
61072.1 40380.7 lineto
poly0
newpath
61072.1 39555.4 moveto
61072.1 39808.1 lineto
60819.3 39808.1 lineto
60819.3 39555.4 lineto
61072.1 39555.4 lineto
poly0
newpath
61072.1 38730 moveto
61072.1 38982.8 lineto
60819.3 38982.8 lineto
60819.3 38730 lineto
61072.1 38730 lineto
poly0
newpath
61072.1 37904.7 moveto
61072.1 38157.5 lineto
60819.3 38157.5 lineto
60819.3 37904.7 lineto
61072.1 37904.7 lineto
poly0
newpath
61897.4 49459.4 moveto
61897.4 49712.1 lineto
61644.6 49712.1 lineto
61644.6 49459.4 lineto
61897.4 49459.4 lineto
poly0
newpath
61897.4 48634.1 moveto
61897.4 48886.8 lineto
61644.6 48886.8 lineto
61644.6 48634.1 lineto
61897.4 48634.1 lineto
poly0
newpath
61897.4 47808.7 moveto
61897.4 48061.5 lineto
61644.6 48061.5 lineto
61644.6 47808.7 lineto
61897.4 47808.7 lineto
poly0
newpath
61897.4 46983.4 moveto
61897.4 47236.1 lineto
61644.6 47236.1 lineto
61644.6 46983.4 lineto
61897.4 46983.4 lineto
poly0
newpath
61897.4 46158.1 moveto
61897.4 46410.8 lineto
61644.6 46410.8 lineto
61644.6 46158.1 lineto
61897.4 46158.1 lineto
poly0
newpath
61897.4 45332.7 moveto
61897.4 45585.5 lineto
61644.6 45585.5 lineto
61644.6 45332.7 lineto
61897.4 45332.7 lineto
poly0
newpath
61897.4 44507.4 moveto
61897.4 44760.1 lineto
61644.6 44760.1 lineto
61644.6 44507.4 lineto
61897.4 44507.4 lineto
poly0
newpath
61897.4 43682.1 moveto
61897.4 43934.8 lineto
61644.6 43934.8 lineto
61644.6 43682.1 lineto
61897.4 43682.1 lineto
poly0
newpath
61897.4 42856.7 moveto
61897.4 43109.5 lineto
61644.6 43109.5 lineto
61644.6 42856.7 lineto
61897.4 42856.7 lineto
poly0
newpath
61897.4 42031.4 moveto
61897.4 42284.1 lineto
61644.6 42284.1 lineto
61644.6 42031.4 lineto
61897.4 42031.4 lineto
poly0
newpath
61897.4 41206.1 moveto
61897.4 41458.8 lineto
61644.6 41458.8 lineto
61644.6 41206.1 lineto
61897.4 41206.1 lineto
poly0
newpath
61897.4 40380.7 moveto
61897.4 40633.5 lineto
61644.6 40633.5 lineto
61644.6 40380.7 lineto
61897.4 40380.7 lineto
poly0
newpath
61897.4 39555.4 moveto
61897.4 39808.1 lineto
61644.6 39808.1 lineto
61644.6 39555.4 lineto
61897.4 39555.4 lineto
poly0
newpath
61897.4 38730 moveto
61897.4 38982.8 lineto
61644.6 38982.8 lineto
61644.6 38730 lineto
61897.4 38730 lineto
poly0
newpath
61897.4 37904.7 moveto
61897.4 38157.5 lineto
61644.6 38157.5 lineto
61644.6 37904.7 lineto
61897.4 37904.7 lineto
poly0
newpath
62722.7 49459.4 moveto
62722.7 49712.1 lineto
62470 49712.1 lineto
62470 49459.4 lineto
62722.7 49459.4 lineto
poly0
newpath
62722.7 48634.1 moveto
62722.7 48886.8 lineto
62470 48886.8 lineto
62470 48634.1 lineto
62722.7 48634.1 lineto
poly0
newpath
62722.7 47808.7 moveto
62722.7 48061.5 lineto
62470 48061.5 lineto
62470 47808.7 lineto
62722.7 47808.7 lineto
poly0
newpath
62722.7 46983.4 moveto
62722.7 47236.1 lineto
62470 47236.1 lineto
62470 46983.4 lineto
62722.7 46983.4 lineto
poly0
newpath
62722.7 46158.1 moveto
62722.7 46410.8 lineto
62470 46410.8 lineto
62470 46158.1 lineto
62722.7 46158.1 lineto
poly0
newpath
62722.7 45332.7 moveto
62722.7 45585.5 lineto
62470 45585.5 lineto
62470 45332.7 lineto
62722.7 45332.7 lineto
poly0
newpath
62722.7 44507.4 moveto
62722.7 44760.1 lineto
62470 44760.1 lineto
62470 44507.4 lineto
62722.7 44507.4 lineto
poly0
newpath
62722.7 43682.1 moveto
62722.7 43934.8 lineto
62470 43934.8 lineto
62470 43682.1 lineto
62722.7 43682.1 lineto
poly0
newpath
62722.7 42856.7 moveto
62722.7 43109.5 lineto
62470 43109.5 lineto
62470 42856.7 lineto
62722.7 42856.7 lineto
poly0
newpath
62722.7 42031.4 moveto
62722.7 42284.1 lineto
62470 42284.1 lineto
62470 42031.4 lineto
62722.7 42031.4 lineto
poly0
newpath
62722.7 41206.1 moveto
62722.7 41458.8 lineto
62470 41458.8 lineto
62470 41206.1 lineto
62722.7 41206.1 lineto
poly0
newpath
62722.7 40380.7 moveto
62722.7 40633.5 lineto
62470 40633.5 lineto
62470 40380.7 lineto
62722.7 40380.7 lineto
poly0
newpath
62722.7 39555.4 moveto
62722.7 39808.1 lineto
62470 39808.1 lineto
62470 39555.4 lineto
62722.7 39555.4 lineto
poly0
newpath
62722.7 38730 moveto
62722.7 38982.8 lineto
62470 38982.8 lineto
62470 38730 lineto
62722.7 38730 lineto
poly0
newpath
62722.7 37904.7 moveto
62722.7 38157.5 lineto
62470 38157.5 lineto
62470 37904.7 lineto
62722.7 37904.7 lineto
poly0
newpath
63548.1 49459.4 moveto
63548.1 49712.1 lineto
63295.3 49712.1 lineto
63295.3 49459.4 lineto
63548.1 49459.4 lineto
poly0
newpath
63548.1 48634.1 moveto
63548.1 48886.8 lineto
63295.3 48886.8 lineto
63295.3 48634.1 lineto
63548.1 48634.1 lineto
poly0
newpath
63548.1 47808.7 moveto
63548.1 48061.5 lineto
63295.3 48061.5 lineto
63295.3 47808.7 lineto
63548.1 47808.7 lineto
poly0
newpath
63548.1 46983.4 moveto
63548.1 47236.1 lineto
63295.3 47236.1 lineto
63295.3 46983.4 lineto
63548.1 46983.4 lineto
poly0
newpath
63548.1 46158.1 moveto
63548.1 46410.8 lineto
63295.3 46410.8 lineto
63295.3 46158.1 lineto
63548.1 46158.1 lineto
poly0
newpath
63548.1 45332.7 moveto
63548.1 45585.5 lineto
63295.3 45585.5 lineto
63295.3 45332.7 lineto
63548.1 45332.7 lineto
poly0
newpath
63548.1 44507.4 moveto
63548.1 44760.1 lineto
63295.3 44760.1 lineto
63295.3 44507.4 lineto
63548.1 44507.4 lineto
poly0
newpath
63548.1 43682.1 moveto
63548.1 43934.8 lineto
63295.3 43934.8 lineto
63295.3 43682.1 lineto
63548.1 43682.1 lineto
poly0
newpath
63548.1 42856.7 moveto
63548.1 43109.5 lineto
63295.3 43109.5 lineto
63295.3 42856.7 lineto
63548.1 42856.7 lineto
poly0
newpath
63548.1 42031.4 moveto
63548.1 42284.1 lineto
63295.3 42284.1 lineto
63295.3 42031.4 lineto
63548.1 42031.4 lineto
poly0
newpath
63548.1 41206.1 moveto
63548.1 41458.8 lineto
63295.3 41458.8 lineto
63295.3 41206.1 lineto
63548.1 41206.1 lineto
poly0
newpath
63548.1 40380.7 moveto
63548.1 40633.5 lineto
63295.3 40633.5 lineto
63295.3 40380.7 lineto
63548.1 40380.7 lineto
poly0
newpath
63548.1 39555.4 moveto
63548.1 39808.1 lineto
63295.3 39808.1 lineto
63295.3 39555.4 lineto
63548.1 39555.4 lineto
poly0
newpath
63548.1 38730 moveto
63548.1 38982.8 lineto
63295.3 38982.8 lineto
63295.3 38730 lineto
63548.1 38730 lineto
poly0
newpath
63548.1 37904.7 moveto
63548.1 38157.5 lineto
63295.3 38157.5 lineto
63295.3 37904.7 lineto
63548.1 37904.7 lineto
poly0
118.11 setlinewidth
0 0 0 setrgbcolor
0 0 0 setrgbcolor
newpath
48153.9 35175.5 moveto
48153.9 36356.6 lineto
48435.1 36356.6 lineto
48603.8 36300.3 lineto
48716.3 36187.9 lineto
48772.6 36075.4 lineto
48828.8 35850.4 lineto
48828.8 35681.7 lineto
48772.6 35456.7 lineto
48716.3 35344.2 lineto
48603.8 35231.7 lineto
48435.1 35175.5 lineto
48153.9 35175.5 lineto
stroke
newpath
49335 35175.5 moveto
49335 35962.9 lineto
stroke
newpath
49335 35737.9 moveto
49391.2 35850.4 lineto
49447.5 35906.6 lineto
49560 35962.9 lineto
49672.5 35962.9 lineto
stroke
newpath
50066.2 35175.5 moveto
50066.2 35962.9 lineto
stroke
newpath
50066.2 36356.6 moveto
50009.9 36300.3 lineto
50066.2 36244.1 lineto
50122.4 36300.3 lineto
50066.2 36356.6 lineto
50066.2 36244.1 lineto
stroke
newpath
50797.3 35175.5 moveto
50684.8 35231.7 lineto
50628.6 35344.2 lineto
50628.6 36356.6 lineto
stroke
newpath
51416 35175.5 moveto
51303.5 35231.7 lineto
51247.3 35344.2 lineto
51247.3 36356.6 lineto
stroke
newpath
52765.8 35175.5 moveto
52765.8 36356.6 lineto
53159.5 35512.9 lineto
53553.2 36356.6 lineto
53553.2 35175.5 lineto
stroke
newpath
54621.8 35175.5 moveto
54621.8 35794.2 lineto
54565.6 35906.6 lineto
54453.1 35962.9 lineto
54228.1 35962.9 lineto
54115.6 35906.6 lineto
stroke
newpath
54621.8 35231.7 moveto
54509.4 35175.5 lineto
54228.1 35175.5 lineto
54115.6 35231.7 lineto
54059.4 35344.2 lineto
54059.4 35456.7 lineto
54115.6 35569.2 lineto
54228.1 35625.4 lineto
54509.4 35625.4 lineto
54621.8 35681.7 lineto
stroke
newpath
55184.3 35962.9 moveto
55184.3 34781.8 lineto
stroke
newpath
55184.3 35906.6 moveto
55296.8 35962.9 lineto
55521.7 35962.9 lineto
55634.2 35906.6 lineto
55690.5 35850.4 lineto
55746.7 35737.9 lineto
55746.7 35400.5 lineto
55690.5 35288 lineto
55634.2 35231.7 lineto
55521.7 35175.5 lineto
55296.8 35175.5 lineto
55184.3 35231.7 lineto
stroke
newpath
56252.9 35288 moveto
56309.1 35231.7 lineto
56252.9 35175.5 lineto
56196.6 35231.7 lineto
56252.9 35288 lineto
56252.9 35175.5 lineto
stroke
newpath
56252.9 35906.6 moveto
56309.1 35850.4 lineto
56252.9 35794.2 lineto
56196.6 35850.4 lineto
56252.9 35906.6 lineto
56252.9 35794.2 lineto
stroke
newpath
46896.2 33294.5 moveto
47026.2 33164.5 lineto
stroke
newpath
47026.2 33294.5 moveto
46896.2 33164.5 lineto
stroke
0 0 0 setrgbcolor
0 0 0 setrgbcolor
newpath
48378.9 33876.3 moveto
48491.4 33876.3 lineto
48603.8 33820 lineto
48660.1 33763.8 lineto
48716.3 33651.3 lineto
48772.6 33426.3 lineto
48772.6 33145.1 lineto
48716.3 32920.1 lineto
48660.1 32807.7 lineto
48603.8 32751.4 lineto
48491.4 32695.2 lineto
48378.9 32695.2 lineto
48266.4 32751.4 lineto
48210.1 32807.7 lineto
48153.9 32920.1 lineto
48097.7 33145.1 lineto
48097.7 33426.3 lineto
48153.9 33651.3 lineto
48210.1 33763.8 lineto
48266.4 33820 lineto
48378.9 33876.3 lineto
stroke
newpath
49278.8 32807.7 moveto
49335 32751.4 lineto
49278.8 32695.2 lineto
49222.5 32751.4 lineto
49278.8 32807.7 lineto
49278.8 32695.2 lineto
stroke
newpath
50347.4 33482.6 moveto
50347.4 32695.2 lineto
stroke
newpath
50066.2 33932.5 moveto
49784.9 33088.9 lineto
50516.1 33088.9 lineto
stroke
newpath
51191 33876.3 moveto
51303.5 33876.3 lineto
51416 33820 lineto
51472.2 33763.8 lineto
51528.5 33651.3 lineto
51584.7 33426.3 lineto
51584.7 33145.1 lineto
51528.5 32920.1 lineto
51472.2 32807.7 lineto
51416 32751.4 lineto
51303.5 32695.2 lineto
51191 32695.2 lineto
51078.5 32751.4 lineto
51022.3 32807.7 lineto
50966 32920.1 lineto
50909.8 33145.1 lineto
50909.8 33426.3 lineto
50966 33651.3 lineto
51022.3 33763.8 lineto
51078.5 33820 lineto
51191 33876.3 lineto
stroke
newpath
52090.9 32695.2 moveto
52090.9 33482.6 lineto
stroke
newpath
52090.9 33370.1 moveto
52147.1 33426.3 lineto
52259.6 33482.6 lineto
52428.4 33482.6 lineto
52540.8 33426.3 lineto
52597.1 33313.8 lineto
52597.1 32695.2 lineto
stroke
newpath
52597.1 33313.8 moveto
52653.3 33426.3 lineto
52765.8 33482.6 lineto
52934.5 33482.6 lineto
53047 33426.3 lineto
53103.3 33313.8 lineto
53103.3 32695.2 lineto
stroke
newpath
53665.7 32695.2 moveto
53665.7 33482.6 lineto
stroke
newpath
53665.7 33370.1 moveto
53721.9 33426.3 lineto
53834.4 33482.6 lineto
54003.2 33482.6 lineto
54115.6 33426.3 lineto
54171.9 33313.8 lineto
54171.9 32695.2 lineto
stroke
newpath
54171.9 33313.8 moveto
54228.1 33426.3 lineto
54340.6 33482.6 lineto
54509.4 33482.6 lineto
54621.8 33426.3 lineto
54678.1 33313.8 lineto
54678.1 32695.2 lineto
stroke
newpath
56984 33932.5 moveto
55971.7 32414 lineto
stroke
newpath
58502.6 33876.3 moveto
58615.1 33876.3 lineto
58727.6 33820 lineto
58783.8 33763.8 lineto
58840.1 33651.3 lineto
58896.3 33426.3 lineto
58896.3 33145.1 lineto
58840.1 32920.1 lineto
58783.8 32807.7 lineto
58727.6 32751.4 lineto
58615.1 32695.2 lineto
58502.6 32695.2 lineto
58390.1 32751.4 lineto
58333.9 32807.7 lineto
58277.6 32920.1 lineto
58221.4 33145.1 lineto
58221.4 33426.3 lineto
58277.6 33651.3 lineto
58333.9 33763.8 lineto
58390.1 33820 lineto
58502.6 33876.3 lineto
stroke
newpath
59402.5 32807.7 moveto
59458.7 32751.4 lineto
59402.5 32695.2 lineto
59346.2 32751.4 lineto
59402.5 32807.7 lineto
59402.5 32695.2 lineto
stroke
newpath
60189.9 33876.3 moveto
60302.4 33876.3 lineto
60414.9 33820 lineto
60471.1 33763.8 lineto
60527.3 33651.3 lineto
60583.6 33426.3 lineto
60583.6 33145.1 lineto
60527.3 32920.1 lineto
60471.1 32807.7 lineto
60414.9 32751.4 lineto
60302.4 32695.2 lineto
60189.9 32695.2 lineto
60077.4 32751.4 lineto
60021.2 32807.7 lineto
59964.9 32920.1 lineto
59908.7 33145.1 lineto
59908.7 33426.3 lineto
59964.9 33651.3 lineto
60021.2 33763.8 lineto
60077.4 33820 lineto
60189.9 33876.3 lineto
stroke
newpath
61708.5 32695.2 moveto
61033.5 32695.2 lineto
stroke
newpath
61371 32695.2 moveto
61371 33876.3 lineto
61258.5 33707.5 lineto
61146 33595.1 lineto
61033.5 33538.8 lineto
stroke
newpath
62720.8 33876.3 moveto
62495.9 33876.3 lineto
62383.4 33820 lineto
62327.1 33763.8 lineto
62214.6 33595.1 lineto
62158.4 33370.1 lineto
62158.4 32920.1 lineto
62214.6 32807.7 lineto
62270.9 32751.4 lineto
62383.4 32695.2 lineto
62608.3 32695.2 lineto
62720.8 32751.4 lineto
62777.1 32807.7 lineto
62833.3 32920.1 lineto
62833.3 33201.4 lineto
62777.1 33313.8 lineto
62720.8 33370.1 lineto
62608.3 33426.3 lineto
62383.4 33426.3 lineto
62270.9 33370.1 lineto
62214.6 33313.8 lineto
62158.4 33201.4 lineto
stroke
newpath
63283.3 33876.3 moveto
63283.3 33651.3 lineto
stroke
newpath
63733.2 33876.3 moveto
63733.2 33651.3 lineto
stroke
newpath
65476.7 32245.2 moveto
65420.5 32301.5 lineto
65308 32470.2 lineto
65251.8 32582.7 lineto
65195.5 32751.4 lineto
65139.3 33032.6 lineto
65139.3 33257.6 lineto
65195.5 33538.8 lineto
65251.8 33707.5 lineto
65308 33820 lineto
65420.5 33988.8 lineto
65476.7 34045 lineto
stroke
newpath
66545.3 32695.2 moveto
65870.4 32695.2 lineto
stroke
newpath
66207.9 32695.2 moveto
66207.9 33876.3 lineto
66095.4 33707.5 lineto
65982.9 33595.1 lineto
65870.4 33538.8 lineto
stroke
newpath
67614 33876.3 moveto
67051.5 33876.3 lineto
66995.3 33313.8 lineto
67051.5 33370.1 lineto
67164 33426.3 lineto
67445.2 33426.3 lineto
67557.7 33370.1 lineto
67614 33313.8 lineto
67670.2 33201.4 lineto
67670.2 32920.1 lineto
67614 32807.7 lineto
67557.7 32751.4 lineto
67445.2 32695.2 lineto
67164 32695.2 lineto
67051.5 32751.4 lineto
66995.3 32807.7 lineto
stroke
newpath
69076.3 32695.2 moveto
69076.3 33876.3 lineto
stroke
newpath
69582.5 32695.2 moveto
69582.5 33313.8 lineto
69526.2 33426.3 lineto
69413.7 33482.6 lineto
69245 33482.6 lineto
69132.5 33426.3 lineto
69076.3 33370.1 lineto
stroke
newpath
70313.6 32695.2 moveto
70201.1 32751.4 lineto
70144.9 32807.7 lineto
70088.7 32920.1 lineto
70088.7 33257.6 lineto
70144.9 33370.1 lineto
70201.1 33426.3 lineto
70313.6 33482.6 lineto
70482.4 33482.6 lineto
70594.8 33426.3 lineto
70651.1 33370.1 lineto
70707.3 33257.6 lineto
70707.3 32920.1 lineto
70651.1 32807.7 lineto
70594.8 32751.4 lineto
70482.4 32695.2 lineto
70313.6 32695.2 lineto
stroke
newpath
71382.2 32695.2 moveto
71269.8 32751.4 lineto
71213.5 32863.9 lineto
71213.5 33876.3 lineto
stroke
newpath
72282.1 32751.4 moveto
72169.6 32695.2 lineto
71944.7 32695.2 lineto
71832.2 32751.4 lineto
71775.9 32863.9 lineto
71775.9 33313.8 lineto
71832.2 33426.3 lineto
71944.7 33482.6 lineto
72169.6 33482.6 lineto
72282.1 33426.3 lineto
72338.4 33313.8 lineto
72338.4 33201.4 lineto
71775.9 33088.9 lineto
stroke
newpath
72788.3 32751.4 moveto
72900.8 32695.2 lineto
73125.8 32695.2 lineto
73238.3 32751.4 lineto
73294.5 32863.9 lineto
73294.5 32920.1 lineto
73238.3 33032.6 lineto
73125.8 33088.9 lineto
72957 33088.9 lineto
72844.6 33145.1 lineto
72788.3 33257.6 lineto
72788.3 33313.8 lineto
72844.6 33426.3 lineto
72957 33482.6 lineto
73125.8 33482.6 lineto
73238.3 33426.3 lineto
stroke
newpath
73688.2 32245.2 moveto
73744.4 32301.5 lineto
73856.9 32470.2 lineto
73913.2 32582.7 lineto
73969.4 32751.4 lineto
74025.7 33032.6 lineto
74025.7 33257.6 lineto
73969.4 33538.8 lineto
73913.2 33707.5 lineto
73856.9 33820 lineto
73744.4 33988.8 lineto
73688.2 34045 lineto
stroke
46863.8 31670.4 162.468 cir0
0 0 0 setrgbcolor
0 0 0 setrgbcolor
newpath
48772.6 31136.1 moveto
48097.7 31136.1 lineto
stroke
newpath
48435.1 31136.1 moveto
48435.1 32317.2 lineto
48322.6 32148.5 lineto
48210.1 32036 lineto
48097.7 31979.8 lineto
stroke
newpath
49278.8 31248.6 moveto
49335 31192.4 lineto
49278.8 31136.1 lineto
49222.5 31192.4 lineto
49278.8 31248.6 lineto
49278.8 31136.1 lineto
stroke
newpath
50066.2 32317.2 moveto
50178.6 32317.2 lineto
50291.1 32261 lineto
50347.4 32204.7 lineto
50403.6 32092.2 lineto
50459.9 31867.3 lineto
50459.9 31586.1 lineto
50403.6 31361.1 lineto
50347.4 31248.6 lineto
50291.1 31192.4 lineto
50178.6 31136.1 lineto
50066.2 31136.1 lineto
49953.7 31192.4 lineto
49897.4 31248.6 lineto
49841.2 31361.1 lineto
49784.9 31586.1 lineto
49784.9 31867.3 lineto
49841.2 32092.2 lineto
49897.4 32204.7 lineto
49953.7 32261 lineto
50066.2 32317.2 lineto
stroke
newpath
51191 32317.2 moveto
51303.5 32317.2 lineto
51416 32261 lineto
51472.2 32204.7 lineto
51528.5 32092.2 lineto
51584.7 31867.3 lineto
51584.7 31586.1 lineto
51528.5 31361.1 lineto
51472.2 31248.6 lineto
51416 31192.4 lineto
51303.5 31136.1 lineto
51191 31136.1 lineto
51078.5 31192.4 lineto
51022.3 31248.6 lineto
50966 31361.1 lineto
50909.8 31586.1 lineto
50909.8 31867.3 lineto
50966 32092.2 lineto
51022.3 32204.7 lineto
51078.5 32261 lineto
51191 32317.2 lineto
stroke
newpath
52090.9 31136.1 moveto
52090.9 31923.5 lineto
stroke
newpath
52090.9 31811 moveto
52147.1 31867.3 lineto
52259.6 31923.5 lineto
52428.4 31923.5 lineto
52540.8 31867.3 lineto
52597.1 31754.8 lineto
52597.1 31136.1 lineto
stroke
newpath
52597.1 31754.8 moveto
52653.3 31867.3 lineto
52765.8 31923.5 lineto
52934.5 31923.5 lineto
53047 31867.3 lineto
53103.3 31754.8 lineto
53103.3 31136.1 lineto
stroke
newpath
53665.7 31136.1 moveto
53665.7 31923.5 lineto
stroke
newpath
53665.7 31811 moveto
53721.9 31867.3 lineto
53834.4 31923.5 lineto
54003.2 31923.5 lineto
54115.6 31867.3 lineto
54171.9 31754.8 lineto
54171.9 31136.1 lineto
stroke
newpath
54171.9 31754.8 moveto
54228.1 31867.3 lineto
54340.6 31923.5 lineto
54509.4 31923.5 lineto
54621.8 31867.3 lineto
54678.1 31754.8 lineto
54678.1 31136.1 lineto
stroke
newpath
56984 32373.5 moveto
55971.7 30854.9 lineto
stroke
newpath
58502.6 32317.2 moveto
58615.1 32317.2 lineto
58727.6 32261 lineto
58783.8 32204.7 lineto
58840.1 32092.2 lineto
58896.3 31867.3 lineto
58896.3 31586.1 lineto
58840.1 31361.1 lineto
58783.8 31248.6 lineto
58727.6 31192.4 lineto
58615.1 31136.1 lineto
58502.6 31136.1 lineto
58390.1 31192.4 lineto
58333.9 31248.6 lineto
58277.6 31361.1 lineto
58221.4 31586.1 lineto
58221.4 31867.3 lineto
58277.6 32092.2 lineto
58333.9 32204.7 lineto
58390.1 32261 lineto
58502.6 32317.2 lineto
stroke
newpath
59402.5 31248.6 moveto
59458.7 31192.4 lineto
59402.5 31136.1 lineto
59346.2 31192.4 lineto
59402.5 31248.6 lineto
59402.5 31136.1 lineto
stroke
newpath
60189.9 32317.2 moveto
60302.4 32317.2 lineto
60414.9 32261 lineto
60471.1 32204.7 lineto
60527.3 32092.2 lineto
60583.6 31867.3 lineto
60583.6 31586.1 lineto
60527.3 31361.1 lineto
60471.1 31248.6 lineto
60414.9 31192.4 lineto
60302.4 31136.1 lineto
60189.9 31136.1 lineto
60077.4 31192.4 lineto
60021.2 31248.6 lineto
59964.9 31361.1 lineto
59908.7 31586.1 lineto
59908.7 31867.3 lineto
59964.9 32092.2 lineto
60021.2 32204.7 lineto
60077.4 32261 lineto
60189.9 32317.2 lineto
stroke
newpath
60977.3 32317.2 moveto
61708.5 32317.2 lineto
61314.8 31867.3 lineto
61483.5 31867.3 lineto
61596 31811 lineto
61652.2 31754.8 lineto
61708.5 31642.3 lineto
61708.5 31361.1 lineto
61652.2 31248.6 lineto
61596 31192.4 lineto
61483.5 31136.1 lineto
61146 31136.1 lineto
61033.5 31192.4 lineto
60977.3 31248.6 lineto
stroke
newpath
62270.9 31136.1 moveto
62495.9 31136.1 lineto
62608.3 31192.4 lineto
62664.6 31248.6 lineto
62777.1 31417.3 lineto
62833.3 31642.3 lineto
62833.3 32092.2 lineto
62777.1 32204.7 lineto
62720.8 32261 lineto
62608.3 32317.2 lineto
62383.4 32317.2 lineto
62270.9 32261 lineto
62214.6 32204.7 lineto
62158.4 32092.2 lineto
62158.4 31811 lineto
62214.6 31698.5 lineto
62270.9 31642.3 lineto
62383.4 31586.1 lineto
62608.3 31586.1 lineto
62720.8 31642.3 lineto
62777.1 31698.5 lineto
62833.3 31811 lineto
stroke
newpath
63283.3 32317.2 moveto
63283.3 32092.2 lineto
stroke
newpath
63733.2 32317.2 moveto
63733.2 32092.2 lineto
stroke
newpath
65476.7 30686.2 moveto
65420.5 30742.4 lineto
65308 30911.1 lineto
65251.8 31023.6 lineto
65195.5 31192.4 lineto
65139.3 31473.6 lineto
65139.3 31698.5 lineto
65195.5 31979.8 lineto
65251.8 32148.5 lineto
65308 32261 lineto
65420.5 32429.7 lineto
65476.7 32485.9 lineto
stroke
newpath
66432.9 31923.5 moveto
66432.9 31136.1 lineto
stroke
newpath
66151.6 32373.5 moveto
65870.4 31529.8 lineto
66601.6 31529.8 lineto
stroke
newpath
67220.3 31811 moveto
67107.8 31867.3 lineto
67051.5 31923.5 lineto
66995.3 32036 lineto
66995.3 32092.2 lineto
67051.5 32204.7 lineto
67107.8 32261 lineto
67220.3 32317.2 lineto
67445.2 32317.2 lineto
67557.7 32261 lineto
67614 32204.7 lineto
67670.2 32092.2 lineto
67670.2 32036 lineto
67614 31923.5 lineto
67557.7 31867.3 lineto
67445.2 31811 lineto
67220.3 31811 lineto
67107.8 31754.8 lineto
67051.5 31698.5 lineto
66995.3 31586.1 lineto
66995.3 31361.1 lineto
67051.5 31248.6 lineto
67107.8 31192.4 lineto
67220.3 31136.1 lineto
67445.2 31136.1 lineto
67557.7 31192.4 lineto
67614 31248.6 lineto
67670.2 31361.1 lineto
67670.2 31586.1 lineto
67614 31698.5 lineto
67557.7 31754.8 lineto
67445.2 31811 lineto
stroke
newpath
69076.3 31136.1 moveto
69076.3 32317.2 lineto
stroke
newpath
69582.5 31136.1 moveto
69582.5 31754.8 lineto
69526.2 31867.3 lineto
69413.7 31923.5 lineto
69245 31923.5 lineto
69132.5 31867.3 lineto
69076.3 31811 lineto
stroke
newpath
70313.6 31136.1 moveto
70201.1 31192.4 lineto
70144.9 31248.6 lineto
70088.7 31361.1 lineto
70088.7 31698.5 lineto
70144.9 31811 lineto
70201.1 31867.3 lineto
70313.6 31923.5 lineto
70482.4 31923.5 lineto
70594.8 31867.3 lineto
70651.1 31811 lineto
70707.3 31698.5 lineto
70707.3 31361.1 lineto
70651.1 31248.6 lineto
70594.8 31192.4 lineto
70482.4 31136.1 lineto
70313.6 31136.1 lineto
stroke
newpath
71382.2 31136.1 moveto
71269.8 31192.4 lineto
71213.5 31304.8 lineto
71213.5 32317.2 lineto
stroke
newpath
72282.1 31192.4 moveto
72169.6 31136.1 lineto
71944.7 31136.1 lineto
71832.2 31192.4 lineto
71775.9 31304.8 lineto
71775.9 31754.8 lineto
71832.2 31867.3 lineto
71944.7 31923.5 lineto
72169.6 31923.5 lineto
72282.1 31867.3 lineto
72338.4 31754.8 lineto
72338.4 31642.3 lineto
71775.9 31529.8 lineto
stroke
newpath
72788.3 31192.4 moveto
72900.8 31136.1 lineto
73125.8 31136.1 lineto
73238.3 31192.4 lineto
73294.5 31304.8 lineto
73294.5 31361.1 lineto
73238.3 31473.6 lineto
73125.8 31529.8 lineto
72957 31529.8 lineto
72844.6 31586.1 lineto
72788.3 31698.5 lineto
72788.3 31754.8 lineto
72844.6 31867.3 lineto
72957 31923.5 lineto
73125.8 31923.5 lineto
73238.3 31867.3 lineto
stroke
newpath
73688.2 30686.2 moveto
73744.4 30742.4 lineto
73856.9 30911.1 lineto
73913.2 31023.6 lineto
73969.4 31192.4 lineto
74025.7 31473.6 lineto
74025.7 31698.5 lineto
73969.4 31979.8 lineto
73913.2 32148.5 lineto
73856.9 32261 lineto
73744.4 32429.7 lineto
73688.2 32485.9 lineto
stroke
newpath
46861.2 30276.4 moveto
46861.2 29946.3 lineto
stroke
newpath
46696.1 30111.4 moveto
47026.2 30111.4 lineto
stroke
0 0 0 setrgbcolor
0 0 0 setrgbcolor
newpath
48772.6 29577.1 moveto
48097.7 29577.1 lineto
stroke
newpath
48435.1 29577.1 moveto
48435.1 30758.2 lineto
48322.6 30589.4 lineto
48210.1 30476.9 lineto
48097.7 30420.7 lineto
stroke
newpath
49278.8 29689.5 moveto
49335 29633.3 lineto
49278.8 29577.1 lineto
49222.5 29633.3 lineto
49278.8 29689.5 lineto
49278.8 29577.1 lineto
stroke
newpath
50066.2 30758.2 moveto
50178.6 30758.2 lineto
50291.1 30701.9 lineto
50347.4 30645.7 lineto
50403.6 30533.2 lineto
50459.9 30308.2 lineto
50459.9 30027 lineto
50403.6 29802 lineto
50347.4 29689.5 lineto
50291.1 29633.3 lineto
50178.6 29577.1 lineto
50066.2 29577.1 lineto
49953.7 29633.3 lineto
49897.4 29689.5 lineto
49841.2 29802 lineto
49784.9 30027 lineto
49784.9 30308.2 lineto
49841.2 30533.2 lineto
49897.4 30645.7 lineto
49953.7 30701.9 lineto
50066.2 30758.2 lineto
stroke
newpath
50909.8 30645.7 moveto
50966 30701.9 lineto
51078.5 30758.2 lineto
51359.7 30758.2 lineto
51472.2 30701.9 lineto
51528.5 30645.7 lineto
51584.7 30533.2 lineto
51584.7 30420.7 lineto
51528.5 30252 lineto
50853.6 29577.1 lineto
51584.7 29577.1 lineto
stroke
newpath
52090.9 29577.1 moveto
52090.9 30364.5 lineto
stroke
newpath
52090.9 30252 moveto
52147.1 30308.2 lineto
52259.6 30364.5 lineto
52428.4 30364.5 lineto
52540.8 30308.2 lineto
52597.1 30195.7 lineto
52597.1 29577.1 lineto
stroke
newpath
52597.1 30195.7 moveto
52653.3 30308.2 lineto
52765.8 30364.5 lineto
52934.5 30364.5 lineto
53047 30308.2 lineto
53103.3 30195.7 lineto
53103.3 29577.1 lineto
stroke
newpath
53665.7 29577.1 moveto
53665.7 30364.5 lineto
stroke
newpath
53665.7 30252 moveto
53721.9 30308.2 lineto
53834.4 30364.5 lineto
54003.2 30364.5 lineto
54115.6 30308.2 lineto
54171.9 30195.7 lineto
54171.9 29577.1 lineto
stroke
newpath
54171.9 30195.7 moveto
54228.1 30308.2 lineto
54340.6 30364.5 lineto
54509.4 30364.5 lineto
54621.8 30308.2 lineto
54678.1 30195.7 lineto
54678.1 29577.1 lineto
stroke
newpath
56984 30814.4 moveto
55971.7 29295.8 lineto
stroke
newpath
58502.6 30758.2 moveto
58615.1 30758.2 lineto
58727.6 30701.9 lineto
58783.8 30645.7 lineto
58840.1 30533.2 lineto
58896.3 30308.2 lineto
58896.3 30027 lineto
58840.1 29802 lineto
58783.8 29689.5 lineto
58727.6 29633.3 lineto
58615.1 29577.1 lineto
58502.6 29577.1 lineto
58390.1 29633.3 lineto
58333.9 29689.5 lineto
58277.6 29802 lineto
58221.4 30027 lineto
58221.4 30308.2 lineto
58277.6 30533.2 lineto
58333.9 30645.7 lineto
58390.1 30701.9 lineto
58502.6 30758.2 lineto
stroke
newpath
59402.5 29689.5 moveto
59458.7 29633.3 lineto
59402.5 29577.1 lineto
59346.2 29633.3 lineto
59402.5 29689.5 lineto
59402.5 29577.1 lineto
stroke
newpath
60189.9 30758.2 moveto
60302.4 30758.2 lineto
60414.9 30701.9 lineto
60471.1 30645.7 lineto
60527.3 30533.2 lineto
60583.6 30308.2 lineto
60583.6 30027 lineto
60527.3 29802 lineto
60471.1 29689.5 lineto
60414.9 29633.3 lineto
60302.4 29577.1 lineto
60189.9 29577.1 lineto
60077.4 29633.3 lineto
60021.2 29689.5 lineto
59964.9 29802 lineto
59908.7 30027 lineto
59908.7 30308.2 lineto
59964.9 30533.2 lineto
60021.2 30645.7 lineto
60077.4 30701.9 lineto
60189.9 30758.2 lineto
stroke
newpath
61596 30364.5 moveto
61596 29577.1 lineto
stroke
newpath
61314.8 30814.4 moveto
61033.5 29970.8 lineto
61764.7 29970.8 lineto
stroke
newpath
62439.6 30758.2 moveto
62552.1 30758.2 lineto
62664.6 30701.9 lineto
62720.8 30645.7 lineto
62777.1 30533.2 lineto
62833.3 30308.2 lineto
62833.3 30027 lineto
62777.1 29802 lineto
62720.8 29689.5 lineto
62664.6 29633.3 lineto
62552.1 29577.1 lineto
62439.6 29577.1 lineto
62327.1 29633.3 lineto
62270.9 29689.5 lineto
62214.6 29802 lineto
62158.4 30027 lineto
62158.4 30308.2 lineto
62214.6 30533.2 lineto
62270.9 30645.7 lineto
62327.1 30701.9 lineto
62439.6 30758.2 lineto
stroke
newpath
63283.3 30758.2 moveto
63283.3 30533.2 lineto
stroke
newpath
63733.2 30758.2 moveto
63733.2 30533.2 lineto
stroke
newpath
65476.7 29127.1 moveto
65420.5 29183.4 lineto
65308 29352.1 lineto
65251.8 29464.6 lineto
65195.5 29633.3 lineto
65139.3 29914.5 lineto
65139.3 30139.5 lineto
65195.5 30420.7 lineto
65251.8 30589.4 lineto
65308 30701.9 lineto
65420.5 30870.6 lineto
65476.7 30926.9 lineto
stroke
newpath
66545.3 29577.1 moveto
65870.4 29577.1 lineto
stroke
newpath
66207.9 29577.1 moveto
66207.9 30758.2 lineto
66095.4 30589.4 lineto
65982.9 30476.9 lineto
65870.4 30420.7 lineto
stroke
newpath
66995.3 30645.7 moveto
67051.5 30701.9 lineto
67164 30758.2 lineto
67445.2 30758.2 lineto
67557.7 30701.9 lineto
67614 30645.7 lineto
67670.2 30533.2 lineto
67670.2 30420.7 lineto
67614 30252 lineto
66939 29577.1 lineto
67670.2 29577.1 lineto
stroke
newpath
69076.3 29577.1 moveto
69076.3 30758.2 lineto
stroke
newpath
69582.5 29577.1 moveto
69582.5 30195.7 lineto
69526.2 30308.2 lineto
69413.7 30364.5 lineto
69245 30364.5 lineto
69132.5 30308.2 lineto
69076.3 30252 lineto
stroke
newpath
70313.6 29577.1 moveto
70201.1 29633.3 lineto
70144.9 29689.5 lineto
70088.7 29802 lineto
70088.7 30139.5 lineto
70144.9 30252 lineto
70201.1 30308.2 lineto
70313.6 30364.5 lineto
70482.4 30364.5 lineto
70594.8 30308.2 lineto
70651.1 30252 lineto
70707.3 30139.5 lineto
70707.3 29802 lineto
70651.1 29689.5 lineto
70594.8 29633.3 lineto
70482.4 29577.1 lineto
70313.6 29577.1 lineto
stroke
newpath
71382.2 29577.1 moveto
71269.8 29633.3 lineto
71213.5 29745.8 lineto
71213.5 30758.2 lineto
stroke
newpath
72282.1 29633.3 moveto
72169.6 29577.1 lineto
71944.7 29577.1 lineto
71832.2 29633.3 lineto
71775.9 29745.8 lineto
71775.9 30195.7 lineto
71832.2 30308.2 lineto
71944.7 30364.5 lineto
72169.6 30364.5 lineto
72282.1 30308.2 lineto
72338.4 30195.7 lineto
72338.4 30083.2 lineto
71775.9 29970.8 lineto
stroke
newpath
72788.3 29633.3 moveto
72900.8 29577.1 lineto
73125.8 29577.1 lineto
73238.3 29633.3 lineto
73294.5 29745.8 lineto
73294.5 29802 lineto
73238.3 29914.5 lineto
73125.8 29970.8 lineto
72957 29970.8 lineto
72844.6 30027 lineto
72788.3 30139.5 lineto
72788.3 30195.7 lineto
72844.6 30308.2 lineto
72957 30364.5 lineto
73125.8 30364.5 lineto
73238.3 30308.2 lineto
stroke
newpath
73688.2 29127.1 moveto
73744.4 29183.4 lineto
73856.9 29352.1 lineto
73913.2 29464.6 lineto
73969.4 29633.3 lineto
74025.7 29914.5 lineto
74025.7 30139.5 lineto
73969.4 30420.7 lineto
73913.2 30589.4 lineto
73856.9 30701.9 lineto
73744.4 30870.6 lineto
73688.2 30926.9 lineto
stroke
newpath
46973.9 28425.9 moveto
46973.9 28678.7 lineto
46721.1 28678.7 lineto
46721.1 28425.9 lineto
46973.9 28425.9 lineto
poly0
0 0 0 setrgbcolor
0 0 0 setrgbcolor
newpath
48772.6 28018 moveto
48097.7 28018 lineto
stroke
newpath
48435.1 28018 moveto
48435.1 29199.1 lineto
48322.6 29030.4 lineto
48210.1 28917.9 lineto
48097.7 28861.6 lineto
stroke
newpath
49278.8 28130.5 moveto
49335 28074.2 lineto
49278.8 28018 lineto
49222.5 28074.2 lineto
49278.8 28130.5 lineto
49278.8 28018 lineto
stroke
newpath
50459.9 28018 moveto
49784.9 28018 lineto
stroke
newpath
50122.4 28018 moveto
50122.4 29199.1 lineto
50009.9 29030.4 lineto
49897.4 28917.9 lineto
49784.9 28861.6 lineto
stroke
newpath
51191 29199.1 moveto
51303.5 29199.1 lineto
51416 29142.9 lineto
51472.2 29086.6 lineto
51528.5 28974.1 lineto
51584.7 28749.2 lineto
51584.7 28467.9 lineto
51528.5 28243 lineto
51472.2 28130.5 lineto
51416 28074.2 lineto
51303.5 28018 lineto
51191 28018 lineto
51078.5 28074.2 lineto
51022.3 28130.5 lineto
50966 28243 lineto
50909.8 28467.9 lineto
50909.8 28749.2 lineto
50966 28974.1 lineto
51022.3 29086.6 lineto
51078.5 29142.9 lineto
51191 29199.1 lineto
stroke
newpath
52090.9 28018 moveto
52090.9 28805.4 lineto
stroke
newpath
52090.9 28692.9 moveto
52147.1 28749.2 lineto
52259.6 28805.4 lineto
52428.4 28805.4 lineto
52540.8 28749.2 lineto
52597.1 28636.7 lineto
52597.1 28018 lineto
stroke
newpath
52597.1 28636.7 moveto
52653.3 28749.2 lineto
52765.8 28805.4 lineto
52934.5 28805.4 lineto
53047 28749.2 lineto
53103.3 28636.7 lineto
53103.3 28018 lineto
stroke
newpath
53665.7 28018 moveto
53665.7 28805.4 lineto
stroke
newpath
53665.7 28692.9 moveto
53721.9 28749.2 lineto
53834.4 28805.4 lineto
54003.2 28805.4 lineto
54115.6 28749.2 lineto
54171.9 28636.7 lineto
54171.9 28018 lineto
stroke
newpath
54171.9 28636.7 moveto
54228.1 28749.2 lineto
54340.6 28805.4 lineto
54509.4 28805.4 lineto
54621.8 28749.2 lineto
54678.1 28636.7 lineto
54678.1 28018 lineto
stroke
newpath
56984 29255.4 moveto
55971.7 27736.8 lineto
stroke
newpath
58502.6 29199.1 moveto
58615.1 29199.1 lineto
58727.6 29142.9 lineto
58783.8 29086.6 lineto
58840.1 28974.1 lineto
58896.3 28749.2 lineto
58896.3 28467.9 lineto
58840.1 28243 lineto
58783.8 28130.5 lineto
58727.6 28074.2 lineto
58615.1 28018 lineto
58502.6 28018 lineto
58390.1 28074.2 lineto
58333.9 28130.5 lineto
58277.6 28243 lineto
58221.4 28467.9 lineto
58221.4 28749.2 lineto
58277.6 28974.1 lineto
58333.9 29086.6 lineto
58390.1 29142.9 lineto
58502.6 29199.1 lineto
stroke
newpath
59402.5 28130.5 moveto
59458.7 28074.2 lineto
59402.5 28018 lineto
59346.2 28074.2 lineto
59402.5 28130.5 lineto
59402.5 28018 lineto
stroke
newpath
60189.9 29199.1 moveto
60302.4 29199.1 lineto
60414.9 29142.9 lineto
60471.1 29086.6 lineto
60527.3 28974.1 lineto
60583.6 28749.2 lineto
60583.6 28467.9 lineto
60527.3 28243 lineto
60471.1 28130.5 lineto
60414.9 28074.2 lineto
60302.4 28018 lineto
60189.9 28018 lineto
60077.4 28074.2 lineto
60021.2 28130.5 lineto
59964.9 28243 lineto
59908.7 28467.9 lineto
59908.7 28749.2 lineto
59964.9 28974.1 lineto
60021.2 29086.6 lineto
60077.4 29142.9 lineto
60189.9 29199.1 lineto
stroke
newpath
61596 28805.4 moveto
61596 28018 lineto
stroke
newpath
61314.8 29255.4 moveto
61033.5 28411.7 lineto
61764.7 28411.7 lineto
stroke
newpath
62102.2 29199.1 moveto
62833.3 29199.1 lineto
62439.6 28749.2 lineto
62608.3 28749.2 lineto
62720.8 28692.9 lineto
62777.1 28636.7 lineto
62833.3 28524.2 lineto
62833.3 28243 lineto
62777.1 28130.5 lineto
62720.8 28074.2 lineto
62608.3 28018 lineto
62270.9 28018 lineto
62158.4 28074.2 lineto
62102.2 28130.5 lineto
stroke
newpath
63283.3 29199.1 moveto
63283.3 28974.1 lineto
stroke
newpath
63733.2 29199.1 moveto
63733.2 28974.1 lineto
stroke
newpath
65476.7 27568.1 moveto
65420.5 27624.3 lineto
65308 27793 lineto
65251.8 27905.5 lineto
65195.5 28074.2 lineto
65139.3 28355.5 lineto
65139.3 28580.4 lineto
65195.5 28861.6 lineto
65251.8 29030.4 lineto
65308 29142.9 lineto
65420.5 29311.6 lineto
65476.7 29367.8 lineto
stroke
newpath
66545.3 28018 moveto
65870.4 28018 lineto
stroke
newpath
66207.9 28018 moveto
66207.9 29199.1 lineto
66095.4 29030.4 lineto
65982.9 28917.9 lineto
65870.4 28861.6 lineto
stroke
newpath
66995.3 29086.6 moveto
67051.5 29142.9 lineto
67164 29199.1 lineto
67445.2 29199.1 lineto
67557.7 29142.9 lineto
67614 29086.6 lineto
67670.2 28974.1 lineto
67670.2 28861.6 lineto
67614 28692.9 lineto
66939 28018 lineto
67670.2 28018 lineto
stroke
newpath
68401.4 29199.1 moveto
68513.9 29199.1 lineto
68626.3 29142.9 lineto
68682.6 29086.6 lineto
68738.8 28974.1 lineto
68795.1 28749.2 lineto
68795.1 28467.9 lineto
68738.8 28243 lineto
68682.6 28130.5 lineto
68626.3 28074.2 lineto
68513.9 28018 lineto
68401.4 28018 lineto
68288.9 28074.2 lineto
68232.6 28130.5 lineto
68176.4 28243 lineto
68120.1 28467.9 lineto
68120.1 28749.2 lineto
68176.4 28974.1 lineto
68232.6 29086.6 lineto
68288.9 29142.9 lineto
68401.4 29199.1 lineto
stroke
newpath
70201.1 28018 moveto
70201.1 29199.1 lineto
stroke
newpath
70707.3 28018 moveto
70707.3 28636.7 lineto
70651.1 28749.2 lineto
70538.6 28805.4 lineto
70369.9 28805.4 lineto
70257.4 28749.2 lineto
70201.1 28692.9 lineto
stroke
newpath
71438.5 28018 moveto
71326 28074.2 lineto
71269.8 28130.5 lineto
71213.5 28243 lineto
71213.5 28580.4 lineto
71269.8 28692.9 lineto
71326 28749.2 lineto
71438.5 28805.4 lineto
71607.2 28805.4 lineto
71719.7 28749.2 lineto
71775.9 28692.9 lineto
71832.2 28580.4 lineto
71832.2 28243 lineto
71775.9 28130.5 lineto
71719.7 28074.2 lineto
71607.2 28018 lineto
71438.5 28018 lineto
stroke
newpath
72507.1 28018 moveto
72394.6 28074.2 lineto
72338.4 28186.7 lineto
72338.4 29199.1 lineto
stroke
newpath
73407 28074.2 moveto
73294.5 28018 lineto
73069.5 28018 lineto
72957 28074.2 lineto
72900.8 28186.7 lineto
72900.8 28636.7 lineto
72957 28749.2 lineto
73069.5 28805.4 lineto
73294.5 28805.4 lineto
73407 28749.2 lineto
73463.2 28636.7 lineto
73463.2 28524.2 lineto
72900.8 28411.7 lineto
stroke
newpath
73913.2 28074.2 moveto
74025.7 28018 lineto
74250.6 28018 lineto
74363.1 28074.2 lineto
74419.4 28186.7 lineto
74419.4 28243 lineto
74363.1 28355.5 lineto
74250.6 28411.7 lineto
74081.9 28411.7 lineto
73969.4 28467.9 lineto
73913.2 28580.4 lineto
73913.2 28636.7 lineto
73969.4 28749.2 lineto
74081.9 28805.4 lineto
74250.6 28805.4 lineto
74363.1 28749.2 lineto
stroke
newpath
74813.1 27568.1 moveto
74869.3 27624.3 lineto
74981.8 27793 lineto
75038 27905.5 lineto
75094.3 28074.2 lineto
75150.5 28355.5 lineto
75150.5 28580.4 lineto
75094.3 28861.6 lineto
75038 29030.4 lineto
74981.8 29142.9 lineto
74869.3 29311.6 lineto
74813.1 29367.8 lineto
stroke
showpage
grestore
%%EOF
